…
### Examples

For instance, search for abstracts and full texts that mention
[`Gabi-Kat`](https://www.gabi-kat.de/),  a Flanking Sequence Tag
(FST)-based database for T-DNA insertion mutants:


```r
epmc_search(query = 'Gabi-Kat')
```

```
#> # A tibble: 100 x 27
#>          id source     pmid      pmcid                                doi
#>       <chr>  <chr>    <chr>      <chr>                              <chr>
#>  1 28013277    MED 28013277 PMC5444572                 10.1093/pcp/pcw205
#>  2 22080561    MED 22080561 PMC3245140                10.1093/nar/gkr1047
#>  3 17062622    MED 17062622 PMC1781121                 10.1093/nar/gkl753
#>  4 14756321    MED 14756321       <NA> 10.1023/b:plan.0000009297.37235.4a
#>  5 12874060    MED 12874060       <NA>      10.1093/bioinformatics/btg170
#>  6 25324895    MED 25324895 PMC4169229            10.1186/1746-4811-10-28
#>  7 26343971    MED 26343971       <NA>         10.1016/j.molp.2015.08.011
#>  8 27117628    MED 27117628 PMC4846993                  10.1038/srep24971
#>  9 28636198    MED 28636198 PMC5519931                  10.1111/nph.14655
#> 10 26493293    MED 26493293 PMC4737287                  10.1111/tpj.13062
#> # ... with 90 more rows, and 22 more variables: title <chr>,
#> #   authorString <chr>, journalTitle <chr>, issue <chr>,
#> #   journalVolume <chr>, pubYear <chr>, journalIssn <chr>, pageInfo <chr>,
#> #   pubType <chr>, isOpenAccess <chr>, inEPMC <chr>, inPMC <chr>,
#> #   hasPDF <chr>, hasBook <chr>, hasSuppl <chr>, citedByCount <int>,
#> #   hasReferences <chr>, hasTextMinedTerms <chr>,
#> #   hasDbCrossReferences <chr>, hasLabsLinks <chr>,
#> #   hasTMAccessionNumbers <chr>, firstPublicationDate <chr>
```

Get PLOS Genetics (ISSN:1553-7404) articles that cross-reference EMBL:


```r
epmc_search(query = 'ISSN:1553-7404 HAS_EMBL:y')
```

```
#> # A tibble: 100 x 27
#>          id source     pmid      pmcid                          doi
#>       <chr>  <chr>    <chr>      <chr>                        <chr>
#>  1 28628615    MED 28628615 PMC5495485 10.1371/journal.pgen.1006847
#>  2 28594826    MED 28594826 PMC5481146 10.1371/journal.pgen.1006838
#>  3 28222092    MED 28222092 PMC5340410 10.1371/journal.pgen.1006596
#>  4 27780204    MED 27780204 PMC5079590 10.1371/journal.pgen.1006397
#>  5 27541862    MED 27541862 PMC4991801 10.1371/journal.pgen.1006270
#>  6 27385107    MED 27385107 PMC4934787 10.1371/journal.pgen.1006155
#>  7 27149082    MED 27149082 PMC4858218 10.1371/journal.pgen.1006030
#>  8 27327578    MED 27327578 PMC4915694 10.1371/journal.pgen.1006110
#>  9 27203426    MED 27203426 PMC4874600 10.1371/journal.pgen.1006063
#> 10 27120580    MED 27120580 PMC4847869 10.1371/journal.pgen.1005987
#> # ... with 90 more rows, and 22 more variables: title <chr>,
#> #   authorString <chr>, journalTitle <chr>, issue <chr>,
#> #   journalVolume <chr>, pubYear <chr>, journalIssn <chr>, pageInfo <chr>,
#> #   pubType <chr>, isOpenAccess <chr>, inEPMC <chr>, inPMC <chr>,
#> #   hasPDF <chr>, hasBook <chr>, hasSuppl <chr>, citedByCount <int>,
#> #   hasReferences <chr>, hasTextMinedTerms <chr>,
#> #   hasDbCrossReferences <chr>, hasLabsLinks <chr>,
#> #   hasTMAccessionNumbers <chr>, firstPublicationDate <chr>
```

Use [ORCID](https://orcid.org/) to search for personal publications:


```r
epmc_search(query = 'AUTHORID:"0000-0002-7635-3473"', limit = 1000)
```

```
#> # A tibble: 134 x 27
#>          id source     pmid      pmcid                         doi
#>       <chr>  <chr>    <chr>      <chr>                       <chr>
#>  1 28585529    MED 28585529 PMC5467160         10.1038/ncomms15708
#>  2 28284041    MED 28284041       <NA>       10.1515/znc-2016-0221
#>  3 28013277    MED 28013277 PMC5444572          10.1093/pcp/pcw205
#>  4 27230558    MED 27230558 PMC4881148   10.1186/s12870-016-0805-5
#>  5 26980001    MED 26980001 PMC4791833   10.1186/s12864-016-2566-9
#>  6 26676716    MED 26676716       <NA>           10.1111/tpj.13103
#>  7 27557761    MED 27557761       <NA> 10.1007/978-1-4939-6396-6_5
#>  8 26343971    MED 26343971       <NA>  10.1016/j.molp.2015.08.011
#>  9 26328666    MED 26328666 PMC4556409   10.1186/s13059-015-0729-7
#> 10 25891958    MED 25891958       <NA>           10.1111/tpj.12854
#> # ... with 124 more rows, and 22 more variables: title <chr>,
#> #   authorString <chr>, journalTitle <chr>, journalVolume <chr>,
#> #   pubYear <chr>, journalIssn <chr>, pageInfo <chr>, pubType <chr>,
#> #   isOpenAccess <chr>, inEPMC <chr>, inPMC <chr>, hasPDF <chr>,
#> #   hasBook <chr>, hasSuppl <chr>, citedByCount <int>,
#> #   hasReferences <chr>, hasTextMinedTerms <chr>,
#> #   hasDbCrossReferences <chr>, hasLabsLinks <chr>,
#> #   hasTMAccessionNumbers <chr>, firstPublicationDate <chr>, issue <chr>
```

**Include MeSH and UniProt synonyms**

You may also want to include synonyms when searching Europe PMC. If
`synonym = TRUE` MeSH and UniProt synonyms are searched as well.


```r
# with snyonyms
epmc_search('aspirin', synonym = TRUE)
```

```
#> # A tibble: 100 x 27
#>          id source     pmid                               doi
#>       <chr>  <chr>    <chr>                             <chr>
#>  1 28942878    MED 28942878      10.1016/j.ijcard.2017.06.052
#>  2 28942879    MED 28942879      10.1016/j.ijcard.2017.08.013
#>  3 28990263    MED 28990263                 10.1111/ctr.13133
#>  4 28937039    MED 28937039          10.4103/0366-6999.215330
#>  5 29024912    MED 29024912      10.1016/j.ejogrb.2017.10.004
#>  6 29026148    MED 29026148        10.1038/s41598-017-13430-z
#>  7 28993349    MED 28993349           10.1136/bcr-2017-220483
#>  8 28969559    MED 28969559 10.2174/1871527316666171002115633
#>  9 28965180    MED 28965180         10.1007/s10565-017-9412-y
#> 10 28974502    MED 28974502           10.1161/jaha.117.006328
#> # ... with 90 more rows, and 23 more variables: title <chr>,
#> #   authorString <chr>, journalTitle <chr>, journalVolume <chr>,
#> #   pubYear <chr>, journalIssn <chr>, pageInfo <chr>, pubType <chr>,
#> #   isOpenAccess <chr>, inEPMC <chr>, inPMC <chr>, hasPDF <chr>,
#> #   hasBook <chr>, citedByCount <int>, hasReferences <chr>,
#> #   hasTextMinedTerms <chr>, hasDbCrossReferences <chr>,
#> #   hasLabsLinks <chr>, hasTMAccessionNumbers <chr>,
#> #   firstPublicationDate <chr>, pmcid <chr>, issue <chr>, hasSuppl <chr>
```

```r
# without synonyms
epmc_search('aspirin', synonym = FALSE)
```

```
#> # A tibble: 100 x 27
#>          id source     pmid                               doi
#>       <chr>  <chr>    <chr>                             <chr>
#>  1 28942878    MED 28942878      10.1016/j.ijcard.2017.06.052
#>  2 28937039    MED 28937039          10.4103/0366-6999.215330
#>  3 28969559    MED 28969559 10.2174/1871527316666171002115633
#>  4 28910305    MED 28910305      10.1371/journal.pone.0184027
#>  5 28965180    MED 28965180         10.1007/s10565-017-9412-y
#>  6 29024912    MED 29024912      10.1016/j.ejogrb.2017.10.004
#>  7 28993349    MED 28993349           10.1136/bcr-2017-220483
#>  8 28974502    MED 28974502           10.1161/jaha.117.006328
#>  9 28968454    MED 28968454      10.1371/journal.pone.0185847
#> 10 28900541    MED 28900541       10.1038/cddiscovery.2017.58
#> # ... with 90 more rows, and 23 more variables: title <chr>,
#> #   authorString <chr>, journalTitle <chr>, journalVolume <chr>,
#> #   pubYear <chr>, journalIssn <chr>, pageInfo <chr>, pubType <chr>,
#> #   isOpenAccess <chr>, inEPMC <chr>, inPMC <chr>, hasPDF <chr>,
#> #   hasBook <chr>, citedByCount <int>, hasReferences <chr>,
#> #   hasTextMinedTerms <chr>, hasDbCrossReferences <chr>,
#> #   hasLabsLinks <chr>, hasTMAccessionNumbers <chr>,
#> #   firstPublicationDate <chr>, pmcid <chr>, issue <chr>, hasSuppl <chr>
```
**Output types**

`epmc_search()` supports the following output types :

**Parsed key metadata (default)**

Key metadata parsed as non-nested tibble:


```r
epmc_search('Gabi-Kat', output = 'parsed')
```

```
#> # A tibble: 100 x 27
#>          id source     pmid      pmcid                                doi
#>       <chr>  <chr>    <chr>      <chr>                              <chr>
#>  1 28013277    MED 28013277 PMC5444572                 10.1093/pcp/pcw205
#>  2 22080561    MED 22080561 PMC3245140                10.1093/nar/gkr1047
#>  3 17062622    MED 17062622 PMC1781121                 10.1093/nar/gkl753
#>  4 14756321    MED 14756321       <NA> 10.1023/b:plan.0000009297.37235.4a
#>  5 12874060    MED 12874060       <NA>      10.1093/bioinformatics/btg170
#>  6 25324895    MED 25324895 PMC4169229            10.1186/1746-4811-10-28
#>  7 26343971    MED 26343971       <NA>         10.1016/j.molp.2015.08.011
#>  8 27117628    MED 27117628 PMC4846993                  10.1038/srep24971
#>  9 28636198    MED 28636198 PMC5519931                  10.1111/nph.14655
#> 10 26493293    MED 26493293 PMC4737287                  10.1111/tpj.13062
#> # ... with 90 more rows, and 22 more variables: title <chr>,
#> #   authorString <chr>, journalTitle <chr>, issue <chr>,
#> #   journalVolume <chr>, pubYear <chr>, journalIssn <chr>, pageInfo <chr>,
#> #   pubType <chr>, isOpenAccess <chr>, inEPMC <chr>, inPMC <chr>,
#> #   hasPDF <chr>, hasBook <chr>, hasSuppl <chr>, citedByCount <int>,
#> #   hasReferences <chr>, hasTextMinedTerms <chr>,
#> #   hasDbCrossReferences <chr>, hasLabsLinks <chr>,
#> #   hasTMAccessionNumbers <chr>, firstPublicationDate <chr>
```
…
**IDs**

List of literature database identifier including PMID:


```r
epmc_search('Gabi-Kat', output = 'id_list')
```

```
#> # A tibble: 100 x 4
#>          id source     pmid      pmcid
#>       <chr>  <chr>    <chr>      <chr>
#>  1 28013277    MED 28013277 PMC5444572
#>  2 22080561    MED 22080561 PMC3245140
#>  3 17062622    MED 17062622 PMC1781121
#>  4 14756321    MED 14756321       <NA>
#>  5 12874060    MED 12874060       <NA>
#>  6 25324895    MED 25324895 PMC4169229
#>  7 26343971    MED 26343971       <NA>
#>  8 27117628    MED 27117628 PMC4846993
#>  9 28636198    MED 28636198 PMC5519931
#> 10 26493293    MED 26493293 PMC4737287
#> # ... with 90 more rows
```
…
**Get citation counts and citing publications**

Citing publications from the Europe PMC index can be retrieved like this:


```r
my_cites <- epmc_citations('9338777')
my_cites
```

```
#> # A tibble: 100 x 12
#>          id source
#>       <chr>  <chr>
#>  1 10221475    MED
#>  2 10342317    MED
#>  3 10440384    MED
#>  4  9696842    MED
#>  5  9703304    MED
#>  6  9728974    MED
#>  7  9728985    MED
#>  8  9728986    MED
#>  9  9728987    MED
#> 10 11134319    MED
#> # ... with 90 more rows, and 10 more variables: citationType <chr>,
#> #   title <chr>, authorString <chr>, journalAbbreviation <chr>,
#> #   pubYear <int>, volume <chr>, issue <chr>, pageInfo <chr>,
#> #   citedByCount <int>, text <chr>
```
…
