…
#### How to find classifiers?

You can find classifiers and their IDs at https://app.monkeylearn.com/main/explore or you can use the `monkeylearn_classifiers` function, choosing to show all classifiers or only the private ones with `private = TRUE`. The first column of the resulting data.frame is the `classifier_id` to be used in `monkeylearn_classify`.


```r
monkeylearn_classifiers(private = FALSE)
```

```
#> # A tibble: 41 x 19
#>    classifier_id                                              name
#>            <chr>                                             <chr>
#>  1   cl_sGdE8hD9              NPS SaaS Product Feedback Classifier
#>  2   cl_T7XMb74S                           IAB Taxonomy Classifier
#>  3   cl_nLW3yR6m      Telcos -  Customer Support Ticket Classifier
#>  4   cl_4LqLD7cN  Telcos - Customer Complaint Classifier (Twitter)
#>  5   cl_rtdVEb8p            Telcos - Sentiment analysis (Facebook)
#>  6   cl_szya8upj Telcos - Customer Complaint Classifier (Facebook)
#>  7   cl_uEzzFRHh          Telcos - Needs Help Detection (Facebook)
#>  8   cl_zSDSt8QP                Outbound Sales Response Classifier
#>  9   cl_nuBGDNiN                Startup News - Industry Classifier
#> 10   cl_GhPhiVYE     E-commerce Customer Support Ticket Classifier
#> # ... with 31 more rows, and 17 more variables: description <chr>,
#> #   train_state <chr>, train_job_id <lgl>, language <chr>,
#> #   ngram_range <chr>, use_stemmer <lgl>, stop_words <chr>,
#> #   max_features <int>, strip_stopwords <lgl>, is_multilabel <lgl>,
#> #   is_twitter_data <lgl>, normalize_weights <lgl>, classifier <chr>,
#> #   industry <chr>, classifier_type <chr>, text_type <chr>,
#> #   permissions <chr>
```
…
