…
### ListIdentifiers


```r
list_identifiers(from = '2011-05-01T', until = '2011-09-01T')
```

```
#> # A tibble: 888 x 6
#>                    identifier            datestamp setSpec setSpec.1
#>                         <chr>                <chr>   <chr>     <chr>
#>  1 oai:oai.datacite.org:32153 2011-06-08T08:57:11Z     TIB  TIB.WDCC
#>  2 oai:oai.datacite.org:32200 2011-06-20T08:12:41Z     TIB TIB.DAGST
#>  3 oai:oai.datacite.org:32220 2011-06-28T14:11:08Z     TIB TIB.DAGST
#>  4 oai:oai.datacite.org:32241 2011-06-30T13:24:45Z     TIB TIB.DAGST
#>  5 oai:oai.datacite.org:32255 2011-07-01T12:09:24Z     TIB TIB.DAGST
#>  6 oai:oai.datacite.org:32282 2011-07-05T09:08:10Z     TIB TIB.DAGST
#>  7 oai:oai.datacite.org:32309 2011-07-06T12:30:54Z     TIB TIB.DAGST
#>  8 oai:oai.datacite.org:32310 2011-07-06T12:42:32Z     TIB TIB.DAGST
#>  9 oai:oai.datacite.org:32325 2011-07-07T11:17:46Z     TIB TIB.DAGST
#> 10 oai:oai.datacite.org:32326 2011-07-07T11:18:47Z     TIB TIB.DAGST
#> # ... with 878 more rows, and 2 more variables: setSpec.2 <chr>,
#> #   setSpec.3 <chr>
```
…
```
#>                           url    count
#> 1 http://oai.datacite.org/oai 11163984
```

### ListRecords


```r
list_records(from = '2011-05-01T', until = '2011-08-15T')
```

```
#> # A tibble: 109 x 44
#>                    identifier            datestamp setSpec setSpec.1
#>                         <chr>                <chr>   <chr>     <chr>
#>  1 oai:oai.datacite.org:32153 2011-06-08T08:57:11Z     TIB  TIB.WDCC
#>  2 oai:oai.datacite.org:32200 2011-06-20T08:12:41Z     TIB TIB.DAGST
#>  3 oai:oai.datacite.org:32220 2011-06-28T14:11:08Z     TIB TIB.DAGST
#>  4 oai:oai.datacite.org:32241 2011-06-30T13:24:45Z     TIB TIB.DAGST
#>  5 oai:oai.datacite.org:32255 2011-07-01T12:09:24Z     TIB TIB.DAGST
#>  6 oai:oai.datacite.org:32282 2011-07-05T09:08:10Z     TIB TIB.DAGST
#>  7 oai:oai.datacite.org:32309 2011-07-06T12:30:54Z     TIB TIB.DAGST
#>  8 oai:oai.datacite.org:32310 2011-07-06T12:42:32Z     TIB TIB.DAGST
#>  9 oai:oai.datacite.org:32325 2011-07-07T11:17:46Z     TIB TIB.DAGST
#> 10 oai:oai.datacite.org:32326 2011-07-07T11:18:47Z     TIB TIB.DAGST
#> # ... with 99 more rows, and 40 more variables: title <chr>,
#> #   creator <chr>, creator.1 <chr>, creator.2 <chr>, creator.3 <chr>,
#> #   creator.4 <chr>, creator.5 <chr>, creator.6 <chr>, creator.7 <chr>,
#> #   publisher <chr>, date <chr>, identifier.2 <chr>, identifier.1 <chr>,
#> #   subject <chr>, description <chr>, description.1 <chr>,
#> #   contributor <chr>, language <chr>, type <chr>, type.1 <chr>,
#> #   format <chr>, format.1 <chr>, rights <chr>, subject.1 <chr>,
#> #   relation <chr>, subject.2 <chr>, subject.3 <chr>, subject.4 <chr>,
#> #   setSpec.2 <chr>, setSpec.3 <chr>, format.2 <chr>, subject.5 <chr>,
…
### List Sets


```r
list_sets("http://oai.datacite.org/oai")
```

```
#> # A tibble: 2,147 x 2
#>                 setSpec
#>                   <chr>
#>  1           REFQUALITY
#>  2                 ANDS
#>  3      ANDS.REFQUALITY
#>  4            ANDS.C113
#>  5 ANDS.C113.REFQUALITY
#>  6            ANDS.C122
#>  7 ANDS.C122.REFQUALITY
#>  8            ANDS.C139
#>  9 ANDS.C139.REFQUALITY
#> 10            ANDS.C145
#> # ... with 2,137 more rows, and 1 more variables: setName <chr>
```
…
