…
### Get data


```r
res <- pg_data(doi = '10.1594/PANGAEA.761032')
res[[1]]
#> <Pangaea data> 10.1594/PANGAEA.761002
#> # A tibble: 250,201 x 9
#>          Event      `Date/Time` Latitude Longitude `Elevation [m]`
#>          <chr>            <chr>    <dbl>     <dbl>           <int>
#>  1 NBP97-05/01 1997-08-04T12:09 -57.5007  -44.9915           -3090
#>  2 NBP97-05/01 1997-08-04T12:09 -57.5007  -44.9915           -3090
#>  3 NBP97-05/01 1997-08-04T12:09 -57.5007  -44.9915           -3090
#>  4 NBP97-05/01 1997-08-04T12:09 -57.5007  -44.9915           -3090
#>  5 NBP97-05/01 1997-08-04T12:09 -57.5007  -44.9915           -3090
#>  6 NBP97-05/01 1997-08-04T12:09 -57.5007  -44.9915           -3090
#>  7 NBP97-05/01 1997-08-04T12:09 -57.5007  -44.9915           -3090
#>  8 NBP97-05/01 1997-08-04T12:09 -57.5007  -44.9915           -3090
#>  9 NBP97-05/01 1997-08-04T12:09 -57.5007  -44.9915           -3090
#> 10 NBP97-05/01 1997-08-04T12:09 -57.5007  -44.9915           -3090
#> # ... with 250,191 more rows, and 4 more variables: `Depth water
#> #   [m]` <int>, `Temp [°C]` <dbl>, Sal <dbl>, `Tpot [°C]` <dbl>
```
…
#>  7 SO145/2_29  -14.825  -111.907           -3355        29DS2-surface
#>  8 SO145/2_29  -14.825  -111.907           -3355           29DS2-core
#>  9 SO145/2_36  -14.892  -109.187           -3503        36DS1-surface
#> 10 SO145/2_36  -14.892  -109.187           -3503           36DS1-core
#> 11 SO145/2_36  -14.892  -109.187           -3503     43DS9-oxid. halo
#> 12 SO145/2_36  -14.892  -109.187           -3503           43DS9-core
#> # ... with 13 more variables: `Sample comment` <chr>, `Depth [m]` <dbl>,
#> #   `Age [ka BP]` <int>, Rock <chr>, Alteration <chr>, `DBD
#> #   [g/cm**3]` <dbl>, `Poros frac (MIP)` <dbl>, `Pore radius mean
#> #   [mm]` <dbl>, `SSA [m**2/g]` <dbl>, `Poros frac (#1 NIR)` <dbl>, `Poros
#> #   frac (#2 NIR)` <dbl>, `Water dm [%]` <dbl>, Minerals <chr>
#> 
#> [[2]]
#> <Pangaea data> 10.1594/PANGAEA.812093
#> # A tibble: 36 x 18
#>       Event `Sample label`                              `Sample comment`
#>       <chr>          <chr>                                         <chr>
#>  1 169-856H 169-856H-55R-1 complete altered, thickness of basalt =200 µm
#>  2 169-856H 169-856H-55R-1 complete altered, thickness of basalt =200 µm
#>  3 169-856H 169-856H-55R-1 complete altered, thickness of basalt =200 µm
#>  4 169-856H 169-856H-55R-1 complete altered, thickness of basalt =200 µm
#>  5 169-856H 169-856H-55R-1 complete altered, thickness of basalt =200 µm
#>  6 169-856H 169-856H-55R-1 complete altered, thickness of basalt =200 µm
#>  7 169-856H 169-856H-55R-1 complete altered, thickness of basalt =200 µm
#>  8 169-856H 169-856H-55R-1 complete altered, thickness of basalt =200 µm
#>  9 169-856H 169-856H-55R-1 complete altered, thickness of basalt =200 µm
#> 10 169-856H 169-856H-55R-1 complete altered, thickness of basalt =200 µm
#> # ... with 26 more rows, and 15 more variables: `Depth [m]` <dbl>,
#> #   `Distance [µm]` <int>, `T tech [°C]` <dbl>, Run <chr>, `- (initial
#> #   concentration of diff...)` <dbl>, `- (initial concentration of
#> #   diff...)` <dbl>, `Poros frac (#1, from fit)` <dbl>, `Poros frac (#2,
#> #   from fit)` <dbl>, `Diff coeff [10**-6 cm**2/s]` <dbl>, `Diff coeff std
#> #   dev [±] (effective from fit)` <dbl>, `Diff coeff std dev [±]
#> #   (effective total)` <dbl>, X <dbl>, `X (average)` <int>, F <int>, `-
#> #   (m)` <dbl>
```
…
#### List identifiers


```r
pg_list_identifiers(from = '2015-09-01', until = '2015-09-05')
#> Error in handle_errors(parsed): OAI-PMH errors: noRecordsMatch:
```

#### List sets


```r
pg_list_sets()
#> # A tibble: 262 x 2
#>      setSpec                                        setName
#>        <chr>                                          <chr>
#>  1       ACD       PANGAEA tech-keyword 'ACD' (2 data sets)
#>  2      ASPS     PANGAEA tech-keyword 'ASPS' (59 data sets)
#>  3 AWIXRFraw PANGAEA tech-keyword 'AWIXRFraw' (1 data sets)
#>  4   BAH1960   PANGAEA tech-keyword 'BAH1960' (2 data sets)
#>  5   BAH1961   PANGAEA tech-keyword 'BAH1961' (2 data sets)
#>  6   BAH1962   PANGAEA tech-keyword 'BAH1962' (7 data sets)
#>  7   BAH1963   PANGAEA tech-keyword 'BAH1963' (7 data sets)
#>  8   BAH1964   PANGAEA tech-keyword 'BAH1964' (7 data sets)
#>  9   BAH1965   PANGAEA tech-keyword 'BAH1965' (7 data sets)
#> 10   BAH1966   PANGAEA tech-keyword 'BAH1966' (6 data sets)
#> # ... with 252 more rows
```
…
