…
#### Search titles


```r
bhl_titlesearchsimple('husbandry')
#> # A tibble: 155 x 23
#>    TitleID BibliographicLevel       MaterialType
#>  *   <int>              <chr>              <chr>
#>  1   25997     Monograph/Item Published material
#>  2   44403     Monograph/Item Published material
#>  3   27062     Monograph/Item Published material
#>  4   41956     Monograph/Item Published material
#>  5   44462     Monograph/Item Published material
#>  6   28081     Monograph/Item Published material
#>  7   56265     Monograph/Item Published material
#>  8   58205     Monograph/Item Published material
#>  9   51946     Monograph/Item Published material
#> 10   55665     Monograph/Item Published material
#> # ... with 145 more rows, and 20 more variables: FullTitle <chr>,
#> #   ShortTitle <chr>, SortTitle <chr>, PartNumber <chr>, PartName <chr>,
#> #   CallNumber <lgl>, Edition <chr>, PublisherPlace <chr>,
#> #   PublisherName <chr>, PublicationDate <chr>,
#> #   PublicationFrequency <chr>, Doi <lgl>, TitleUrl <lgl>, Authors <lgl>,
#> #   Subjects <lgl>, Identifiers <lgl>, Collections <lgl>, Variants <lgl>,
#> #   Items <lgl>, Notes <lgl>
```

#### Get languages

This function gets a list of languages in which materials in BHL have been written.


```r
bhl_getlanguages()
#> # A tibble: 70 x 2
#>    LanguageCode         LanguageName
#>  *        <chr>                <chr>
#>  1          AFR            Afrikaans
#>  2          ARA               Arabic
#>  3          ARC              Aramaic
#>  4          MAP Austronesian (Other)
#>  5          BUL            Bulgarian
#>  6          BUR              Burmese
#>  7          CAR                Carib
#>  8          CAT              Catalan
#>  9          CEL       Celtic (Other)
#> 10          CHI              Chinese
#> # ... with 60 more rows
```
…
