…
#### Search license information


```r
cr_licenses(query = 'elsevier')
#> $meta
#>   total_results search_terms start_index items_per_page
#> 1            22     elsevier           0             20
#> 
#> $data
#> # A tibble: 22 x 2
#>                                                         URL work.count
#>                                                       <chr>      <int>
#>  1 http://aspb.org/publications/aspb-journals/open-articles          1
#>  2        http://creativecommons.org/licenses/by-nc-nd/3.0/         12
#>  3        http://creativecommons.org/licenses/by-nc-nd/4.0/          6
#>  4           http://creativecommons.org/licenses/by-nc/4.0/          1
#>  5              http://creativecommons.org/licenses/by/3.0/          1
#>  6               http://creativecommons.org/licenses/by/4.0          1
#>  7              http://creativecommons.org/licenses/by/4.0/          1
#>  8               http://doi.wiley.com/10.1002/tdm_license_1        157
#>  9             http://doi.wiley.com/10.1002/tdm_license_1.1       2163
#> 10   http://journals.iucr.org/services/copyrightpolicy.html         10
#> # ... with 12 more rows
```
…
