…
```r
ed_search(query = 'size', which = "grid")
#> # A tibble: 290 x 2
#>                                                                          title
#>                                                                          <chr>
#>  1 COAWST Hindcast:MVCO/CBlast 2007:ripples with SWAN-40m res (00 dir roms) [t
#>  2 COAWST Hindcast:MVCO/CBlast 2007:ripples with SWAN-40m res (00 dir roms) [t
#>  3 COAWST Hindcast:MVCO/CBlast 2007:ripples with SWAN-40m res (00 dir roms) [t
#>  4 COAWST Hindcast:MVCO/CBlast 2007:ripples with SWAN-40m res (00 dir roms) [t
#>  5 COAWST Hindcast:MVCO/CBlast 2007:ripples with SWAN-40m res (00 dir roms) [t
#>  6 ROMS3.0 CBLAST2007 Ripples with SWAN-40m res (his case7 ar0fd 0021) [time][
#>  7 ROMS3.0 CBLAST2007 Ripples with SWAN-40m res (his case7 ar0fd 0021) [time][
#>  8 ROMS3.0 CBLAST2007 Ripples with SWAN-40m res (his case7 ar0fd 0021) [time][
#>  9 ROMS3.0 CBLAST2007 Ripples with SWAN-40m res (his case7 ar0fd 0021) [time][
#> 10 ROMS3.0 CBLAST2007 Ripples with SWAN-40m res (his case7 ar0fd 0021) [time][
#> # ... with 280 more rows, and 1 more variables: dataset_id <chr>
```
…
```r
(dat <- tabledap(out, 'time>=2011-01-01', 'time<=2011-12-31', fields = c('longitude', 'latitude', 'larvae_size', 'scientific_name')))
#> <ERDDAP tabledap> erdCalCOFIlrvsiz
#>    Path: [/Users/sacmac/Library/Caches/R/rdpla/c08c5d45ecceae143cd67258f5c9c5fa.csv]
#>    Last updated: [2017-10-17 12:00:32]
#>    File size:    [0.05 mb]
#> # A tibble: 1,217 x 4
#>    longitude  latitude larvae_size        scientific_name
#>  *     <chr>     <chr>       <chr>                  <chr>
#>  1  -117.305 32.956665         4.5       Engraulis mordax
#>  2  -117.305 32.956665         2.9 Doryteuthis opalescens
#>  3  -117.305 32.956665         2.7 Doryteuthis opalescens
#>  4  -117.305 32.956665         3.3 Doryteuthis opalescens
#>  5  -117.305 32.956665         3.0 Doryteuthis opalescens
#>  6  -117.305 32.956665         3.7 Doryteuthis opalescens
#>  7  -117.305 32.956665         3.4 Doryteuthis opalescens
#>  8  -117.305 32.956665         3.2 Doryteuthis opalescens
#>  9  -117.305 32.956665         2.8 Doryteuthis opalescens
#> 10  -117.305 32.956665         3.6 Doryteuthis opalescens
#> # ... with 1,207 more rows
```
…
