…
#### The `aq_countries` function

The `aq_countries` function allows to see for which countries information is available within the platform. It is the easiest function because it does not have any argument. The code for each country is its ISO 3166-1 alpha-2 code.


```r
countriesTable <- aq_countries()
library("knitr")
```


```r
countriesTable$results
#> # A tibble: 25 × 5
#>                      name  code cities locations   count
#> *                   <chr> <chr>  <int>     <int>   <int>
#> 1               Australia    AU     11        28  797474
#> 2  Bosnia and Herzegovina    BA      4        11  161215
#> 3              Bangladesh    BD      1         2    5679
#> 4                  Brazil    BR     73       113 1230472
#> 5                  Canada    CA     11       157  562575
#> 6                   Chile    CL     95       104 1811329
#> 7                   China    CN      5         6   49696
#> 8                Colombia    CO      1         1    4156
#> 9                Ethiopia    ET      1         1     453
#> 10         United Kingdom    GB    105       152 1598044
#> # ... with 15 more rows
```
…
#### The `aq_cities` function

Using the `aq_cities` functions one can get all cities for which information is available within the platform. For each city, one gets the number of locations and the count of measures for the city, the URL encoded string, and the country it is in.


```r
citiesTable <- aq_cities()
citiesTable$results
#> # A tibble: 100 × 5
#>           city country locations count     cityURL
#>          <chr>   <chr>     <int> <int>       <chr>
#> 1          76t      TH         1     4         76t
#> 2    ABBEVILLE      US         1  2588   ABBEVILLE
#> 3     Aberdeen      GB         3 25639    Aberdeen
#> 4     Aberdeen      US         2  6192    Aberdeen
#> 5          ADA      US         1  7829         ADA
#> 6        ADAIR      US         1 11073       ADAIR
#> 7        ADAMS      US         2 10662       ADAMS
#> 8  Addis Ababa      ET         1   453 Addis+Ababa
#> 9       Adrian      US         1  7400      Adrian
#> 10        Agra      IN         1 20442        Agra
#> # ... with 90 more rows
```

The optional `country` argument allows to do this for a given country instead of the whole world.


```r
citiesTableIndia <- aq_cities(country="IN")
citiesTableIndia$results
#> # A tibble: 34 × 5
#>          city country locations  count    cityURL
#>         <chr>   <chr>     <int>  <int>      <chr>
#> 1        Agra      IN         1  20442       Agra
#> 2   Ahmedabad      IN         1  10490  Ahmedabad
#> 3  Aurangabad      IN         1   3370 Aurangabad
#> 4  Barddhaman      IN         1   1641 Barddhaman
#> 5   Bengaluru      IN         5  67936  Bengaluru
#> 6  Chandrapur      IN         2  29160 Chandrapur
#> 7     Chennai      IN         4  45069    Chennai
#> 8    Chittoor      IN         1   2013   Chittoor
#> 9       Delhi      IN        15 278695      Delhi
#> 10  Faridabad      IN         1  34020  Faridabad
#> # ... with 24 more rows
```
…
```r
#aq_cities(country="PANEM")
```

#### The `locations` function

The `aq_locations` function has far more arguments than the first two functions. On can filter locations in a given country, city, location, for a given parameter (valid values are "pm25", "pm10", "so2", "no2", "o3", "co" and "bc"), from a given date and/or up to a given date, for values between a minimum and a maximum, for a given circle outside a central point by the use of the `latitude`, `longitude` and `radius` arguments. In the output table one also gets URL encoded strings for the city and the location. Below are several examples.

Here we only look for locations with PM2.5 information in India.


```r
locationsIndia <- aq_locations(country="IN", parameter="pm25")
locationsIndia$results
#> # A tibble: 39 × 18
#>                              location        city country sourceName count
#>                                 <chr>       <chr>   <chr>      <chr> <int>
#> 1               AAQMS Karve Road Pune        Pune      IN       CPCB  6962
#> 2                         Anand Vihar       Delhi      IN       CPCB  8270
#> 3                         AP Tirumala    Chittoor      IN       CPCB   493
#> 4                       Ardhali Bazar    Varanasi      IN       CPCB 10073
#> 5                      Central School     Lucknow      IN       CPCB  4190
#> 6                          Chandrapur  Chandrapur      IN       CPCB  4148
#> 7                         Civil Lines       Delhi      IN       CPCB     1
#> 8         Collectorate - Gaya - BSPCB        Gaya      IN       CPCB  3157
#> 9        Collectorate Jodhpur - RSPCB     Jodhpur      IN       CPCB  6420
#> 10 Collectorate - Muzaffarpur - BSPCB Muzaffarpur      IN       CPCB  6415
#> # ... with 29 more rows, and 13 more variables: lastUpdated <dttm>,
#> #   firstUpdated <dttm>, latitude <dbl>, longitude <dbl>, pm25 <lgl>,
#> #   pm10 <lgl>, no2 <lgl>, so2 <lgl>, o3 <lgl>, co <lgl>, bc <lgl>,
#> #   cityURL <chr>, locationURL <chr>
```


### Getting measurements

Two functions allow to get data: `aq_measurement` and `aq_latest`. In both of them the arguments city and location needs to be given as URL encoded strings.

#### The `aq_measurements` function

The `aq_measurements` function has many arguments for getting a query specific to, say, a given parameter in a given location or for a given circle outside a central point by the use of the `latitude`, `longitude` and `radius` arguments. Below we get the PM2.5 measures for Anand Vihar in Delhi in India.


```r
tableResults <- aq_measurements(country="IN", city="Delhi", location="Anand+Vihar", parameter="pm25")
tableResults$results
#> # A tibble: 100 × 12
#>       location parameter value  unit country  city             dateUTC
#>          <chr>     <chr> <int> <chr>   <chr> <chr>              <dttm>
#> 1  Anand Vihar      pm25    67 µg/m³      IN Delhi 2016-09-06 18:05:00
#> 2  Anand Vihar      pm25    67 µg/m³      IN Delhi 2016-09-06 17:35:00
#> 3  Anand Vihar      pm25    82 µg/m³      IN Delhi 2016-09-06 17:05:00
#> 4  Anand Vihar      pm25    82 µg/m³      IN Delhi 2016-09-06 16:35:00
#> 5  Anand Vihar      pm25    97 µg/m³      IN Delhi 2016-09-06 16:05:00
#> 6  Anand Vihar      pm25    97 µg/m³      IN Delhi 2016-09-06 15:35:00
#> 7  Anand Vihar      pm25    63 µg/m³      IN Delhi 2016-09-06 15:05:00
#> 8  Anand Vihar      pm25    63 µg/m³      IN Delhi 2016-09-06 14:35:00
#> 9  Anand Vihar      pm25    70 µg/m³      IN Delhi 2016-09-06 14:05:00
#> 10 Anand Vihar      pm25    70 µg/m³      IN Delhi 2016-09-06 13:35:00
#> # ... with 90 more rows, and 5 more variables: dateLocal <dttm>,
#> #   latitude <dbl>, longitude <dbl>, cityURL <chr>, locationURL <chr>
```
…
One could also get all possible parameters in the same table.


#### The `aq_latest` function

This function gives a table with all newest measures for the locations that are chosen by the arguments. If all arguments are `NULL`, it gives all the newest measures for all locations.



```r
tableLatest <- aq_latest()
tableLatest$results
#> # A tibble: 213 × 11
#>             location                 city country longitude   latitude
#>                <chr>                <chr>   <chr>     <dbl>      <dbl>
#> 1            100 ail          Ulaanbaatar      MN  47.93291  106.92138
#> 2            100 ail          Ulaanbaatar      MN  47.93291  106.92138
#> 3            100 ail          Ulaanbaatar      MN  47.93291  106.92138
#> 4            100 ail          Ulaanbaatar      MN  47.93291  106.92138
#> 5            100 ail          Ulaanbaatar      MN  47.93291  106.92138
#> 6  16th and Whitmore Omaha-Council Bluffs      US  41.32247  -95.93799
#> 7  16th and Whitmore Omaha-Council Bluffs      US  41.32247  -95.93799
#> 8    1NL Navajo Lake           Farmington      US  36.80970 -107.65170
#> 9         21 de mayo          Los Angeles      CL -37.47118  -72.36146
#> 10        21 de mayo          Los Angeles      CL -37.47118  -72.36146
#> # ... with 203 more rows, and 6 more variables: parameter <chr>,
#> #   value <dbl>, lastUpdated <dttm>, unit <chr>, cityURL <chr>,
#> #   locationURL <chr>
```
…
