…
Limit the number of records returned (under 1000)


```r
res <- vertsearch("(kansas state OR KSU)", limit = 200)
res$data
```

```
#> # A tibble: 200 x 78
#>    individualcount              georeferenceprotocol
#>              <chr>                             <chr>
#>  1               8     GEOLocate (Rios & Bart, 2010)
#>  2              11     GEOLocate (Rios & Bart, 2010)
#>  3               3     GEOLocate (Rios & Bart, 2010)
#>  4            <NA>                              <NA>
#>  5            <NA>                              <NA>
#>  6            <NA>                              <NA>
#>  7               1 VertNet Georeferencing Guidelines
#>  8               1 VertNet Georeferencing Guidelines
#>  9               1 VertNet Georeferencing Guidelines
#> 10               1 VertNet Georeferencing Guidelines
#> # ... with 190 more rows, and 76 more variables: recordedby <chr>,
#> #   bibliographiccitation <chr>, stateprovince <chr>, basisofrecord <chr>,
#> #   month <chr>, decimallongitude <chr>, phylum <chr>, references <chr>,
#> #   georeferencedby <chr>, year <chr>, taxonrank <chr>,
#> #   specificepithet <chr>, family <chr>, countrycode <chr>,
#> #   locality <chr>, geodeticdatum <chr>,
#> #   coordinateuncertaintyinmeters <chr>, highergeography <chr>,
#> #   continent <chr>, day <chr>, kingdom <chr>, georeferenceddate <chr>,
#> #   footprintwkt <chr>, institutioncode <chr>, scientificname <chr>,
…
