…
`dframe()` is a utility function to create a compact data.frame representation. You
don't have to use it. If you do, you can work with `scrubr` functions with a compact
data.frame, making it easier to see the data quickly. If you don't use `dframe()`
we just use your regular data.frame. Problem is with large data.frame's you deal with
lots of stuff printed to the screen, making it hard to quickly wrangle data.

### Coordinate based cleaning

Remove impossible coordinates (using sample data included in the pkg)


```r
# coord_impossible(dframe(sample_data_1)) # w/o pipe
dframe(sample_data_1) %>% coord_impossible()
#> # A tibble: 1,500 x 5
#>                name  longitude latitude                date        key
#>  *            <chr>      <dbl>    <dbl>              <dttm>      <int>
#>  1 Ursus americanus  -79.68283 38.36662 2015-01-14 16:36:45 1065590124
#>  2 Ursus americanus  -82.42028 35.73304 2015-01-13 00:25:39 1065588899
#>  3 Ursus americanus  -99.09625 23.66893 2015-02-20 23:00:00 1098894889
#>  4 Ursus americanus  -72.77432 43.94883 2015-02-13 16:16:41 1065611122
#>  5 Ursus americanus  -72.34617 43.86464 2015-03-01 20:20:45 1088908315
#>  6 Ursus americanus -108.53674 32.65219 2015-03-29 17:06:54 1088932238
#>  7 Ursus americanus -108.53691 32.65237 2015-03-29 17:12:50 1088932273
#>  8 Ursus americanus -123.82900 40.13240 2015-03-28 23:00:00 1132403409
#>  9 Ursus americanus  -78.25027 36.93018 2015-03-20 21:11:24 1088923534
#> 10 Ursus americanus  -76.78671 35.53079 2015-04-05 23:00:00 1088954559
#> # ... with 1,490 more rows
```

Remove incomplete coordinates


```r
# coord_incomplete(dframe(sample_data_1)) # w/o pipe
dframe(sample_data_1) %>% coord_incomplete()
#> # A tibble: 1,306 x 5
#>                name  longitude latitude                date        key
#>  *            <chr>      <dbl>    <dbl>              <dttm>      <int>
#>  1 Ursus americanus  -79.68283 38.36662 2015-01-14 16:36:45 1065590124
#>  2 Ursus americanus  -82.42028 35.73304 2015-01-13 00:25:39 1065588899
#>  3 Ursus americanus  -99.09625 23.66893 2015-02-20 23:00:00 1098894889
#>  4 Ursus americanus  -72.77432 43.94883 2015-02-13 16:16:41 1065611122
#>  5 Ursus americanus  -72.34617 43.86464 2015-03-01 20:20:45 1088908315
#>  6 Ursus americanus -108.53674 32.65219 2015-03-29 17:06:54 1088932238
#>  7 Ursus americanus -108.53691 32.65237 2015-03-29 17:12:50 1088932273
#>  8 Ursus americanus -123.82900 40.13240 2015-03-28 23:00:00 1132403409
#>  9 Ursus americanus  -78.25027 36.93018 2015-03-20 21:11:24 1088923534
#> 10 Ursus americanus  -76.78671 35.53079 2015-04-05 23:00:00 1088954559
#> # ... with 1,296 more rows
```

Remove unlikely coordinates (e.g., those at 0,0)


```r
# coord_unlikely(dframe(sample_data_1)) # w/o pipe
dframe(sample_data_1) %>% coord_unlikely()
#> # A tibble: 1,488 x 5
#>                name  longitude latitude                date        key
#>  *            <chr>      <dbl>    <dbl>              <dttm>      <int>
#>  1 Ursus americanus  -79.68283 38.36662 2015-01-14 16:36:45 1065590124
#>  2 Ursus americanus  -82.42028 35.73304 2015-01-13 00:25:39 1065588899
#>  3 Ursus americanus  -99.09625 23.66893 2015-02-20 23:00:00 1098894889
#>  4 Ursus americanus  -72.77432 43.94883 2015-02-13 16:16:41 1065611122
#>  5 Ursus americanus  -72.34617 43.86464 2015-03-01 20:20:45 1088908315
#>  6 Ursus americanus -108.53674 32.65219 2015-03-29 17:06:54 1088932238
#>  7 Ursus americanus -108.53691 32.65237 2015-03-29 17:12:50 1088932273
#>  8 Ursus americanus -123.82900 40.13240 2015-03-28 23:00:00 1132403409
#>  9 Ursus americanus  -78.25027 36.93018 2015-03-20 21:11:24 1088923534
#> 10 Ursus americanus  -76.78671 35.53079 2015-04-05 23:00:00 1088954559
#> # ... with 1,478 more rows
```

Do all three


```r
dframe(sample_data_1) %>%
  coord_impossible() %>%
  coord_incomplete() %>%
  coord_unlikely()
#> # A tibble: 1,294 x 5
#>                name  longitude latitude                date        key
#>  *            <chr>      <dbl>    <dbl>              <dttm>      <int>
#>  1 Ursus americanus  -79.68283 38.36662 2015-01-14 16:36:45 1065590124
#>  2 Ursus americanus  -82.42028 35.73304 2015-01-13 00:25:39 1065588899
#>  3 Ursus americanus  -99.09625 23.66893 2015-02-20 23:00:00 1098894889
#>  4 Ursus americanus  -72.77432 43.94883 2015-02-13 16:16:41 1065611122
#>  5 Ursus americanus  -72.34617 43.86464 2015-03-01 20:20:45 1088908315
#>  6 Ursus americanus -108.53674 32.65219 2015-03-29 17:06:54 1088932238
#>  7 Ursus americanus -108.53691 32.65237 2015-03-29 17:12:50 1088932273
#>  8 Ursus americanus -123.82900 40.13240 2015-03-28 23:00:00 1132403409
#>  9 Ursus americanus  -78.25027 36.93018 2015-03-20 21:11:24 1088923534
#> 10 Ursus americanus  -76.78671 35.53079 2015-04-05 23:00:00 1088954559
#> # ... with 1,284 more rows
```
…
Clean names


```r
NROW(res)
#> [1] 500
df <- dframe(res) %>% tax_no_epithet(name = "name")
NROW(df)
#> [1] 470
attr(df, "name_var")
#> NULL
attr(df, "tax_no_epithet")
#> # A tibble: 30 x 121
#>     name        key decimalLatitude decimalLongitude           issues
#>    <chr>      <int>           <dbl>            <dbl>            <chr>
#>  1  <NA> 1440079043       -25.62458         30.79125   cdround,gass84
#>  2  <NA> 1440083929       -34.04125         18.54125   gass84,txmathi
#>  3  <NA> 1440102029       -29.54125         30.29125   gass84,txmathi
#>  4  <NA> 1440105439       -29.45792         30.20792   cdround,gass84
#>  5  <NA> 1440107570       -32.87458         28.04125   cdround,gass84
#>  6  <NA> 1563170865       -26.93389        -49.38000   cdround,gass84
#>  7  <NA> 1563449751        42.78535          2.46788           gass84
#>  8  <NA> 1563455851        14.72054         98.54309   gass84,txmathi
#>  9  <NA> 1563886565       -11.44000         47.35000 cudc,cuiv,gass84
#> 10  <NA> 1563886576       -13.05067         45.01783 cudc,cuiv,gass84
#> # ... with 20 more rows, and 116 more variables: datasetKey <chr>,
#> #   publishingOrgKey <chr>, publishingCountry <chr>, protocol <chr>,
#> #   lastCrawled <chr>, lastParsed <chr>, crawlId <int>,
#> #   basisOfRecord <chr>, individualCount <int>, taxonKey <int>,
#> #   kingdomKey <int>, phylumKey <int>, classKey <int>, orderKey <int>,
#> #   familyKey <int>, genusKey <int>, scientificName <chr>, kingdom <chr>,
#> #   phylum <chr>, order <chr>, family <chr>, genus <chr>,
#> #   genericName <chr>, specificEpithet <chr>, taxonRank <chr>,
#> #   elevation <dbl>, elevationAccuracy <dbl>, stateProvince <chr>,
…
