…
If you only request data from gbif, like `from = 'gbif'`, then the other four source slots are present in the response object, but have no data.

You can quickly get just the GBIF data by indexing to it, like


```r
df$gbif
```

```
#> Species [Accipiter striatus (500)] 
#> First 10 rows of [Accipiter_striatus]
#> 
#> # A tibble: 500 x 106
#>                  name  longitude latitude  prov         issues        key
#>                 <chr>      <dbl>    <dbl> <chr>          <chr>      <int>
#>  1 Accipiter striatus -105.14459 39.91499  gbif cdround,gass84 1572375879
#>  2 Accipiter striatus  -77.41813 39.49461  gbif cdround,gass84 1453332084
#>  3 Accipiter striatus -122.05344 36.95316  gbif cdround,gass84 1453346783
#>  4 Accipiter striatus  -96.84084 33.13948  gbif cdround,gass84 1562918951
#>  5 Accipiter striatus  -83.06435 42.27640  gbif cdround,gass84 1453374806
#>  6 Accipiter striatus  -93.60027 42.13699  gbif cdround,gass84 1453347396
#>  7 Accipiter striatus  -96.94657 32.83480  gbif cdround,gass84 1453372191
#>  8 Accipiter striatus  -99.14944 19.34328  gbif cdround,gass84 1453336277
#>  9 Accipiter striatus         NA       NA  gbif                1453348280
#> 10 Accipiter striatus  -79.33628 43.60350  gbif cdround,gass84 1453387327
#> # ... with 490 more rows, and 100 more variables: datasetKey <chr>,
#> #   publishingOrgKey <chr>, publishingCountry <chr>, protocol <chr>,
#> #   lastCrawled <chr>, lastParsed <chr>, crawlId <int>,
#> #   basisOfRecord <chr>, taxonKey <int>, kingdomKey <int>,
#> #   phylumKey <int>, classKey <int>, orderKey <int>, familyKey <int>,
#> #   genusKey <int>, scientificName <chr>, kingdom <chr>, phylum <chr>,
#> #   order <chr>, family <chr>, genus <chr>, genericName <chr>,
#> #   specificEpithet <chr>, taxonRank <chr>, dateIdentified <chr>,
#> #   coordinateUncertaintyInMeters <dbl>, year <int>, month <int>,
…
