…
allthedata
```

```
## # A tibble: 24,685 × 12
##                               location parameter value  unit country
##                                  <chr>     <chr> <dbl> <chr>   <chr>
## 1  IDA Pashamylaram, Hyderabad - TSPCB      pm25  56.0 µg/m³      IN
## 2                              ZooPark      pm25  56.0 µg/m³      IN
## 3        US Diplomatic Post: Hyderabad      pm25 158.6 µg/m³      IN
## 4  IDA Pashamylaram, Hyderabad - TSPCB      pm25  56.0 µg/m³      IN
## 5                              ZooPark      pm25  56.0 µg/m³      IN
## 6  IDA Pashamylaram, Hyderabad - TSPCB      pm25  56.0 µg/m³      IN
## 7                              ZooPark      pm25  56.0 µg/m³      IN
## 8  IDA Pashamylaram, Hyderabad - TSPCB      pm25  56.0 µg/m³      IN
## 9        US Diplomatic Post: Hyderabad      pm25 148.8 µg/m³      IN
## 10                             ZooPark      pm25  56.0 µg/m³      IN
## # ... with 24,675 more rows, and 7 more variables: city <chr>,
## #   dateUTC <dttm>, dateLocal <dttm>, latitude <dbl>, longitude <dbl>,
## #   cityURL <chr>, locationURL <chr>
```
…
