…
An example `taxmap` class:


```r
ex_taxmap
#> <Taxmap>
#>   17 taxa: b. Mammalia ... q. lycopersicum, r. tuberosum
#>   17 edges: NA->b, NA->c, b->d ... j->o, k->p, l->q, l->r
#>   4 data sets:
#>     info:
#>       # A tibble: 6 x 4
#>           name n_legs dangerous taxon_id
#>         <fctr>  <dbl>     <lgl>    <chr>
#>       1  tiger      4      TRUE        m
#>       2    cat      4     FALSE        n
#>       3   mole      4     FALSE        o
#>       # ... with 3 more rows
…
Get taxonomic hierarchy down from the Oak genus - that is, since it's a genus, get all species in the Oak genus


```r
res <- search_scientific("Quercus")
hierarchy_down(res[1,]$tsn)
#> # A tibble: 207 x 5
#>    parentname parenttsn rankname          taxonname   tsn
#>  *      <chr>     <chr>    <chr>              <chr> <chr>
#>  1    Quercus     19276  Species    Quercus falcata 19277
#>  2    Quercus     19276  Species     Quercus lyrata 19278
#>  3    Quercus     19276  Species  Quercus michauxii 19279
#>  4    Quercus     19276  Species      Quercus nigra 19280
#>  5    Quercus     19276  Species  Quercus palustris 19281
#>  6    Quercus     19276  Species    Quercus phellos 19282
#>  7    Quercus     19276  Species Quercus virginiana 19283
#>  8    Quercus     19276  Species Quercus macrocarpa 19287
#>  9    Quercus     19276  Species   Quercus coccinea 19288
#> 10    Quercus     19276  Species  Quercus agrifolia 19289
#> # ... with 197 more rows
```
…
