…
    ## # A tibble: 2 x 9
    ##   station_name station_id   lat   lon  elev interval start   end distance
    ##   <chr>        <fct>      <dbl> <dbl> <dbl> <chr>    <int> <int>    <dbl>
    ## 1 KAMLOOPS AUT 42203       50.7  -120   345 hour      2006  2018     6.18
    ## 2 KAMLOOPS A   51423       50.7  -120   345 hour      2013  2018     6.79

Next, download the weather data:

``` r
kam <- weather_dl(station_ids = "42203", start = min(f$date), end = max(f$date)) %>%
  select(time, temp)
kam
```

    ## # A tibble: 120 x 2
    ##    time                 temp
    ##  * <dttm>              <dbl>
    ##  1 2017-01-06 00:00:00 -11.2
    ##  2 2017-01-06 01:00:00 -10.7
    ##  3 2017-01-06 02:00:00 -10.8
    ##  4 2017-01-06 03:00:00 -10.4
    ##  5 2017-01-06 04:00:00 -14.0
    ##  6 2017-01-06 05:00:00 -14.5
    ##  7 2017-01-06 06:00:00 -11.1
    ##  8 2017-01-06 07:00:00 -10.9
    ##  9 2017-01-06 08:00:00 -11.7
    ## 10 2017-01-06 09:00:00 -12.7
    ## # ... with 110 more rows
…
