…
Given an EBD file or data frame, and corresponding sampling event data,
the function `auk_zerofill()` produces zero-filled, presence-absence
data.

``` r
zf <- auk_zerofill(f_out_ebd, f_out_sampling)
zf
#> Zero-filled EBD: 12,938 unique checklists, for 2 species.
zf$observations
#> # A tibble: 25,876 x 4
#>    checklist_id scientific_name    observation_count species_observed
#>    <chr>        <chr>              <chr>             <lgl>           
#>  1 G1003224     Catharus bicknelli 0                 FALSE           
#>  2 G1003224     Catharus ustulatus X                 TRUE            
#>  3 G1022603     Catharus bicknelli 0                 FALSE           
#>  4 G1022603     Catharus ustulatus 0                 FALSE           
#>  5 G1054429     Catharus bicknelli 3                 TRUE            
#>  6 G1054429     Catharus ustulatus X                 TRUE            
#>  7 G1054430     Catharus bicknelli 0                 FALSE           
#>  8 G1054430     Catharus ustulatus X                 TRUE            
#>  9 G1054431     Catharus bicknelli 1                 TRUE            
#> 10 G1054431     Catharus ustulatus X                 TRUE            
#> # ... with 25,866 more rows
zf$sampling_events
#> # A tibble: 12,938 x 29
#>    checklist_id last_edited_date country country_code state state_code
#>    <chr>        <chr>            <chr>   <chr>        <chr> <chr>     
#>  1 S10836735    2014-05-07 19:1… United… US           New … US-NH     
#>  2 S10936397    2014-05-07 19:0… United… US           New … US-NH     
#>  3 S10995603    2014-05-07 19:0… United… US           New … US-NH     
#>  4 S11005948    2012-06-19 12:4… United… US           New … US-NH     
#>  5 S11013341    2012-06-20 18:2… United… US           New … US-NH     
#>  6 S15136517    2013-09-10 08:1… United… US           New … US-NH     
#>  7 S11012701    2017-06-12 06:3… United… US           New … US-NH     
#>  8 S10995655    2012-06-17 19:5… United… US           New … US-NH     
#>  9 S15295339    2014-05-07 18:5… United… US           New … US-NH     
#> 10 S10932312    2014-05-07 18:4… United… US           New … US-NH     
#> # ... with 12,928 more rows, and 23 more variables: county <chr>,
#> #   county_code <chr>, iba_code <chr>, bcr_code <int>, usfws_code <chr>,
#> #   atlas_block <chr>, locality_id <chr>, locality_type <chr>,
#> #   latitude <dbl>, longitude <dbl>, observation_date <date>,
#> #   time_observations_started <chr>, observer_id <chr>,
#> #   sampling_event_identifier <chr>, protocol_type <chr>,
#> #   protocol_code <chr>, project_code <chr>, duration_minutes <int>,
#> #   effort_distance_km <dbl>, effort_area_ha <dbl>,
#> #   number_observers <int>, all_species_reported <lgl>,
#> #   group_identifier <chr>
```

The resulting `auk_zerofill` object is a list of two data frames:
`observations` stores the species’ counts for each checklist and
`sampling_events` stores the checklists. The `checklist_id` field can be
used to combine the files together manually, or you can use the
`collapse_zerofill()` function.

``` r
collapse_zerofill(zf)
#> # A tibble: 25,876 x 32
#>    checklist_id last_edited_date country country_code state state_code
#>    <chr>        <chr>            <chr>   <chr>        <chr> <chr>     
#>  1 S10836735    2014-05-07 19:1… United… US           New … US-NH     
#>  2 S10836735    2014-05-07 19:1… United… US           New … US-NH     
#>  3 S10936397    2014-05-07 19:0… United… US           New … US-NH     
#>  4 S10936397    2014-05-07 19:0… United… US           New … US-NH     
#>  5 S10995603    2014-05-07 19:0… United… US           New … US-NH     
#>  6 S10995603    2014-05-07 19:0… United… US           New … US-NH     
#>  7 S11005948    2012-06-19 12:4… United… US           New … US-NH     
#>  8 S11005948    2012-06-19 12:4… United… US           New … US-NH     
#>  9 S11013341    2012-06-20 18:2… United… US           New … US-NH     
#> 10 S11013341    2012-06-20 18:2… United… US           New … US-NH     
#> # ... with 25,866 more rows, and 26 more variables: county <chr>,
#> #   county_code <chr>, iba_code <chr>, bcr_code <int>, usfws_code <chr>,
#> #   atlas_block <chr>, locality_id <chr>, locality_type <chr>,
#> #   latitude <dbl>, longitude <dbl>, observation_date <date>,
#> #   time_observations_started <chr>, observer_id <chr>,
#> #   sampling_event_identifier <chr>, protocol_type <chr>,
#> #   protocol_code <chr>, project_code <chr>, duration_minutes <int>,
#> #   effort_distance_km <dbl>, effort_area_ha <dbl>,
#> #   number_observers <int>, all_species_reported <lgl>,
…
