…
* Download the daily precipitation time series:

```r
prec <- get_data("kyy", 985)
prec

## # A tibble: 22,217 x 3
##    date                value comment
##    <dttm>              <dbl> <chr>  
##  1 1954-01-01 08:00:00 15.3  <NA>   
##  2 1954-01-02 08:00:00  5.60 <NA>   
##  3 1954-01-03 08:00:00 10.2  <NA>   
##  4 1954-01-04 08:00:00  0.   <NA>   
##  5 1954-01-05 08:00:00 10.8  <NA>   
## # ... with 22,212 more rows
```

* Download the flow time series:

```r
flow <- get_data("kyy", 2224)
flow

## # A tibble: 324 x 3
##    date                 value comment
##    <dttm>               <dbl> <chr>  
##  1 1970-09-01 00:00:00   3.86 <NA>   
##  2 1970-10-01 00:00:00  10.1  <NA>   
##  3 1970-11-01 00:00:00  25.8  <NA>   
##  4 1970-12-01 00:00:00  32.1  <NA>   
##  5 1971-01-01 00:00:00 100.   <NA>   
## # ... with 319 more rows
```
…
