…
Notice that spatial coverage is still not 100%.
Notably, places where the satellite missed and frozen regions in the arctic have `NA` values.

## Getting global precipitation data with rnoaa

We can better interpret soil moisture if we know about precipitation, and the NOAA Climate Prediction Center (CPC) has global precipitation data that are a cinch to get with the `cpc_prcp` function.


```r
cpc_prcp('2018-03-01')
```

```
## # A tibble: 259,200 x 3
##      lon   lat precip
##    <dbl> <dbl>  <dbl>
##  1  0.25 -89.8      0
##  2  0.75 -89.8      0
##  3  1.25 -89.8      0
##  4  1.75 -89.8      0
##  5  2.25 -89.8      0
##  6  2.75 -89.8      0
##  7  3.25 -89.8      0
##  8  3.75 -89.8      0
##  9  4.25 -89.8      0
## 10  4.75 -89.8      0
## # ... with 259,190 more rows
```
…
Amazing!
We now have a list where each element contains a data frame with the amount of precipitation over a consistent spatial grid that covers the whole globe, over a one week interval.
To merge these data frames together into one, we can use `bind_rows`, and we'll also filter out `NA` values, which are represented as negative numbers:


```r
date_seq %>%
  map(cpc_prcp) %>%
  bind_rows %>%
  filter(precip >= 0)
```

```
## # A tibble: 558,357 x 3
##      lon   lat precip
##    <dbl> <dbl>  <dbl>
##  1  0.25 -89.8      0
##  2  0.75 -89.8      0
##  3  1.25 -89.8      0
##  4  1.75 -89.8      0
##  5  2.25 -89.8      0
##  6  2.75 -89.8      0
##  7  3.25 -89.8      0
##  8  3.75 -89.8      0
##  9  4.25 -89.8      0
## 10  4.75 -89.8      0
## # ... with 558,347 more rows
```

Now we have one data frame, and we can compute a mean over all dates for each grid cell using a `group_by`, `summarize` operation.


```r
date_seq %>%
  map(cpc_prcp) %>%
  bind_rows %>%
  filter(precip >= 0) %>%
  group_by(lon, lat) %>%
  summarize(precip = mean(precip, na.rm = TRUE))
```

```
## # A tibble: 93,060 x 3
## # Groups:   lon [?]
##      lon   lat precip
##    <dbl> <dbl>  <dbl>
##  1  0.25 -89.8      0
##  2  0.25 -89.2      0
##  3  0.25 -88.8      0
##  4  0.25 -88.2      0
##  5  0.25 -87.8      0
##  6  0.25 -87.2      0
##  7  0.25 -86.8      0
##  8  0.25 -86.2      0
##  9  0.25 -85.8      0
## 10  0.25 -85.2      0
## # ... with 93,050 more rows
```
…
soil_moisture <- make_study_area_df(weekly_smap) %>%
  rename(sm = value)
precip <- make_study_area_df(weekly_precip) %>%
  rename(pr = value)
```

Let's check these out!


```r
soil_moisture
```

```
## # A tibble: 171,124 x 4
##        x     y date          sm
##    <dbl> <dbl> <date>     <dbl>
##  1  50.7  11.9 2015-04-01 0.185
##  2  51.1  11.9 2015-04-01 0.127
##  3  50.3  11.6 2015-04-01 0.337
##  4  50.7  11.6 2015-04-01 0.150
##  5  51.1  11.6 2015-04-01 0.139
##  6  43.2  11.3 2015-04-01 0.340
##  7  48.5  11.3 2015-04-01 0.557
##  8  48.8  11.3 2015-04-01 0.361
##  9  49.2  11.3 2015-04-01 0.398
## 10  49.6  11.3 2015-04-01 0.150
## # ... with 171,114 more rows
```
…
