…
```r
daily_flows_boxed
```

```
## # A tibble: 320,307 x 5
##    STATION_NUMBER Date       Parameter Value Symbol
##    <chr>          <date>     <chr>     <dbl> <chr> 
##  1 08MH005        1911-10-01 Flow         NA <NA>  
##  2 08MH006        1911-10-01 Flow         NA <NA>  
##  3 08MH005        1911-10-02 Flow         NA <NA>  
##  4 08MH006        1911-10-02 Flow         NA <NA>  
##  5 08MH005        1911-10-03 Flow         NA <NA>  
##  6 08MH006        1911-10-03 Flow         NA <NA>  
##  7 08MH005        1911-10-04 Flow         NA <NA>  
##  8 08MH006        1911-10-04 Flow         NA <NA>  
##  9 08MH005        1911-10-05 Flow         NA <NA>  
## 10 08MH006        1911-10-05 Flow         NA <NA>  
## # ... with 320,297 more rows
```
…
