…
For example, let's recode missing values in all Spanish waves, bind them
into one single `tibble` and visualize how satisfied are Spaniards with
their government. First, let's extract a cleaner data.

    semi_cleaned <-
      spain %>% 
      map(recode_missings) %>% 
      bind_rows() %>% 
      mutate(name = str_sub(name, end = 4)) %>% 
      select(name, stfgov)

    semi_cleaned

    ## # A tibble: 13,543 x 2
    ##    name  stfgov
    ##    <chr>  <dbl>
    ##  1 ESS1      0.
    ##  2 ESS1      0.
    ##  3 ESS1      5.
    ##  4 ESS1      5.
    ##  5 ESS1      4.
    ##  6 ESS1      7.
    ##  7 ESS1      2.
    ##  8 ESS1      2.
    ##  9 ESS1      3.
    ## 10 ESS1      3.
    ## # ... with 13,533 more rows
…
    semi_cleaned <-
      selected_rounds %>% 
      map(~ select(.x, name, cntry, stfgov)) %>% 
      map(~ filter(.x, cntry %in% c("ES","FR"))) %>% 
      bind_rows() %>% 
      mutate(name = str_sub(name, end = 4)) %>% 
      recode_missings()

    semi_cleaned

    ## # A tibble: 26,524 x 3
    ##    name  cntry stfgov
    ##    <chr> <chr>  <dbl>
    ##  1 ESS1  ES        0.
    ##  2 ESS1  ES        0.
    ##  3 ESS1  ES        5.
    ##  4 ESS1  ES        5.
    ##  5 ESS1  ES        4.
    ##  6 ESS1  ES        7.
    ##  7 ESS1  ES        2.
    ##  8 ESS1  ES        2.
    ##  9 ESS1  ES        3.
    ## 10 ESS1  ES        3.
    ## # ... with 26,514 more rows
…
