…
``` r
word_cors <- onboarding_line_words %>%
  dplyr::group_by(word) %>%
  dplyr::filter(!word %in% stopwords) %>%
  dplyr::filter(n() >= 20) %>%
  widyr::pairwise_cor(word, line_id, sort = TRUE)
```

For instance, what often goes in the same line as vignette?

``` r
dplyr::filter(word_cors, item1 == "vignette")
```

    ## # A tibble: 853 x 3
    ##    item1    item2     correlation
    ##    <chr>    <chr>           <dbl>
    ##  1 vignette readme         0.176 
    ##  2 vignette vignettes      0.174 
    ##  3 vignette chunk          0.145 
    ##  4 vignette eval           0.120 
    ##  5 vignette examples       0.108 
    ##  6 vignette overview       0.0933
    ##  7 vignette building       0.0914
    ##  8 vignette link           0.0863
    ##  9 vignette maps           0.0840
    ## 10 vignette package        0.0831
    ## # ... with 843 more rows
…
