…
2) Look at the built in `stations` data set to find the specific stations you're interested in (you can also use the `stations_search()` function). Here, we'll use the [`dplyr`](https://dplyr.tidyverse.org/) package (part of [`tidyverse`](https://www.tidyverse.org)) to `filter()` stations to only those in the province of Manitoba, which record data at daily intervals, and which have an end date of 2018 or later (which likely means it's still operational at the date of writing this post). Note that we'll also be removing some columns (`prov`, `climate_id`, `WMO_id`, `TC_id`) just for clarity.

``` r
mb <- filter(stations, 
             prov == "MB",
             interval == "day",
             end >= 2018) %>%
  select(-prov, -climate_id, -WMO_id, -TC_id)
mb
```

    ## # A tibble: 70 x 8
    ##    station_name         station_id   lat    lon  elev interval start   end
    ##    <chr>                <fct>      <dbl>  <dbl> <dbl> <chr>    <int> <int>
    ##  1 BALDUR               3463        49.3 - 99.3   450 day       1962  2018
    ##  2 BRANDON A            50821       49.9 -100.0   409 day       2012  2018
    ##  3 BRANDON RCS          49909       49.9 -100.0   409 day       2012  2018
    ##  4 CARBERRY CS          27741       49.9 - 99.4   384 day       1994  2018
    ##  5 CYPRESS RIVER RCS    48128       49.6 - 99.1   374 day       2009  2018
    ##  6 ELKHORN 2 EAST       3460        49.9 -101     498 day       1987  2018
    ##  7 PORTAGE ROMANCE      45987       50.0 - 98.3   262 day       2007  2018
    ##  8 PORTAGE LA PRAIRIE … 3519        50.0 - 98.3   259 day       1970  2018
    ##  9 PORTAGE SOUTHPORT    10884       49.9 - 98.3   273 day       1992  2018
    ## 10 ROBLIN               27119       51.2 -101     540 day       1996  2018
    ## # ... with 60 more rows
…
    ## # A tibble: 2 x 9
    ##   station_name station_id   lat   lon  elev interval start   end distance
    ##   <chr>        <fct>      <dbl> <dbl> <dbl> <chr>    <int> <int>    <dbl>
    ## 1 KAMLOOPS AUT 42203       50.7  -120   345 hour      2006  2018     6.18
    ## 2 KAMLOOPS A   51423       50.7  -120   345 hour      2013  2018     6.79

Next, download the weather data:

``` r
kam <- weather_dl(station_ids = "42203", start = min(f$date), end = max(f$date)) %>%
  select(time, temp)
kam
```

    ## # A tibble: 120 x 2
    ##    time                 temp
    ##  * <dttm>              <dbl>
    ##  1 2017-01-06 00:00:00 -11.2
    ##  2 2017-01-06 01:00:00 -10.7
    ##  3 2017-01-06 02:00:00 -10.8
    ##  4 2017-01-06 03:00:00 -10.4
    ##  5 2017-01-06 04:00:00 -14.0
    ##  6 2017-01-06 05:00:00 -14.5
    ##  7 2017-01-06 06:00:00 -11.1
    ##  8 2017-01-06 07:00:00 -10.9
    ##  9 2017-01-06 08:00:00 -11.7
    ## 10 2017-01-06 09:00:00 -12.7
    ## # ... with 110 more rows
…
