…
dv
```

    ## NASA/POWER SRB/FLASHFlux/MERRA2/GEOS 5.12.4 (FP-IT) 0.5 x 0.5 Degree Daily Averaged Data  
    ##  Dates (month/day/year): 01/01/1983 through 12/31/2018  
    ##  Location: Latitude  36.7266   Longitude -117.218  
    ##  Elevation from MERRA-2: Average for 1/2x1/2 degree lat/lon region = 1192.53 meters   Site = na  
    ##  Climate zone: na (reference Briggs et al: http://www.energycodes.gov)  
    ##  Value for missing model data cannot be computed or out of model availability range: -99  
    ##  
    ##  Parameters:
    ##  T2M_MIN MERRA2 1/2x1/2 Minimum Temperature at 2 Meters (C) ;
    ##  T2M_MAX MERRA2 1/2x1/2 Maximum Temperature at 2 Meters (C)  
    ##  
    ## # A tibble: 13,149 x 9
    ##      LON   LAT  YEAR    MM    DD   DOY YYYYMMDD   T2M_MIN T2M_MAX
    ##    <dbl> <dbl> <dbl> <int> <int> <int> <date>       <dbl>   <dbl>
    ##  1 -117.  36.7  1983     1     1     1 1983-01-01   -4.73    7.24
    ##  2 -117.  36.7  1983     1     2     2 1983-01-02   -3.33    7.72
    ##  3 -117.  36.7  1983     1     3     3 1983-01-03    0.05   11.8
    ##  4 -117.  36.7  1983     1     4     4 1983-01-04    1.27   14.9
    ##  5 -117.  36.7  1983     1     5     5 1983-01-05    2.55   15.9
    ##  6 -117.  36.7  1983     1     6     6 1983-01-06    2.63   17.1
    ##  7 -117.  36.7  1983     1     7     7 1983-01-07    3.2    17.2
    ##  8 -117.  36.7  1983     1     8     8 1983-01-08    1.96   18.3
    ##  9 -117.  36.7  1983     1     9     9 1983-01-09    0.7    14.0
    ## 10 -117.  36.7  1983     1    10    10 1983-01-10    1.3    17.6
    ## # … with 13,139 more rows
…
    ## NASA/POWER SRB/FLASHFlux/MERRA2/GEOS 5.12.4 (FP-IT) 0.5 x 0.5 Degree Climatologies  
    ##  22-year Additional Solar Parameter Monthly & Annual Climatologies (July 1983 - June 2005), 30-year Meteorological and Solar Monthly & Annual Climatologies (January 1984 - December 2013)  
    ##  Location: Global  
    ##  Value for missing model data cannot be computed or out of model availability range: -99  
    ##  Parameter(s):  
    ##  T2M MERRA2 1/2x1/2 Temperature at 2 Meters (C)  
    ##  
    ##  Parameters:
    ##  NA;
    ##  NA;
    ##  T2M MERRA2 1/2x1/2 Temperature at 2 Meters (C)  
    ##  
    ## # A tibble: 259,200 x 16
    ##      LON   LAT PARAMETER   JAN   FEB   MAR   APR   MAY   JUN   JUL   AUG
    ##    <dbl> <dbl> <chr>     <dbl> <dbl> <dbl> <dbl> <dbl> <dbl> <dbl> <dbl>
    ##  1 -180. -89.8 T2M       -29.0 -40.7 -52.9 -57.8 -59.1 -59.6 -61.3 -61.8
    ##  2 -179. -89.8 T2M       -29.0 -40.7 -52.9 -57.8 -59.1 -59.6 -61.3 -61.8
    ##  3 -179. -89.8 T2M       -29.0 -40.7 -52.9 -57.8 -59.1 -59.6 -61.3 -61.8
    ##  4 -178. -89.8 T2M       -29.0 -40.7 -52.9 -57.8 -59.1 -59.6 -61.3 -61.8
    ##  5 -178. -89.8 T2M       -29.0 -40.7 -52.9 -57.8 -59.1 -59.6 -61.3 -61.8
    ##  6 -177. -89.8 T2M       -28.9 -40.7 -52.9 -57.9 -59.1 -59.6 -61.3 -61.8
    ##  7 -177. -89.8 T2M       -28.9 -40.7 -52.9 -57.9 -59.1 -59.6 -61.3 -61.8
    ##  8 -176. -89.8 T2M       -28.9 -40.7 -53.0 -57.9 -59.1 -59.6 -61.3 -61.8
    ##  9 -176. -89.8 T2M       -28.9 -40.7 -53.0 -57.9 -59.1 -59.6 -61.3 -61.8
    ## 10 -175. -89.8 T2M       -28.9 -40.7 -53.0 -57.9 -59.1 -59.6 -61.3 -61.8
    ## # … with 259,190 more rows, and 5 more variables: SEP <dbl>, OCT <dbl>,
    ## #   NOV <dbl>, DEC <dbl>, ANN <dbl>
…
# view the tibble
regional_t2m
```

    ## NASA/POWER SRB/FLASHFlux/MERRA2/ 0.5 x 0.5 Degree Climatologies  
    ##  22-year Additional Solar Parameter Monthly & Annual Climatologies (July 1983 - June 2005), 30-year Meteorological and Solar Monthly & Annual Climatologies (January 1984 - December 2013)  
    ##  Location: Regional  
    ##  Elevation from MERRA-2: Average for 1/2x1/2 degree lat/lon region = na meters   Site = na  
    ##  Climate zone: na (reference Briggs et al: http://www.energycodes.gov)  
    ##  Value for missing model data cannot be computed or out of model availability range: -99  
    ##  
    ##  Parameters:
    ##  T2M MERRA2 1/2x1/2 Temperature at 2 Meters (C)  
    ##  
    ## # A tibble: 77 x 16
    ##      LON   LAT PARAMETER   JAN   FEB   MAR   APR   MAY   JUN   JUL   AUG
    ##    <dbl> <dbl> <chr>     <dbl> <dbl> <dbl> <dbl> <dbl> <dbl> <dbl> <dbl>
    ##  1  113. -55.2 T2M        2.98  3.38  3.13  2.4   1.65  1.01  0.41 -0.05
    ##  2  113. -55.2 T2M        3.07  3.47  3.22  2.5   1.75  1.11  0.51  0.05
    ##  3  114. -55.2 T2M        3.14  3.55  3.32  2.6   1.85  1.21  0.61  0.15
    ##  4  114. -55.2 T2M        3.2   3.62  3.39  2.69  1.94  1.29  0.69  0.22
    ##  5  115. -55.2 T2M        3.26  3.69  3.46  2.76  2.01  1.37  0.77  0.28
    ##  6  115. -55.2 T2M        3.3   3.73  3.51  2.82  2.06  1.43  0.83  0.34
    ##  7  116. -55.2 T2M        3.32  3.77  3.54  2.86  2.1   1.49  0.88  0.39
    ##  8  113. -54.8 T2M        3.12  3.51  3.3   2.57  1.82  1.17  0.59  0.12
    ##  9  113. -54.8 T2M        3.2   3.6   3.39  2.68  1.92  1.26  0.69  0.21
    ## 10  114. -54.8 T2M        3.27  3.7   3.49  2.78  2.02  1.36  0.78  0.3
    ## # … with 67 more rows, and 5 more variables: SEP <dbl>, OCT <dbl>,
    ## #   NOV <dbl>, DEC <dbl>, ANN <dbl>
…
