…
#### Open Trade Statistics

This is straightforward:

```r
ots_create_tidy_data(years = 2016, reporters = "chile", partners = c("argentina", "bolivia", "peru"))
```

```
## # A tibble: 2,788 x 20
##     year reporter_iso partner_iso reporter_fullna… partner_fullnam…
##    <int> <chr>        <chr>       <chr>            <chr>           
##  1  2016 chl          arg         Chile            Argentina       
##  2  2016 chl          arg         Chile            Argentina       
##  3  2016 chl          arg         Chile            Argentina       
##  4  2016 chl          arg         Chile            Argentina       
##  5  2016 chl          arg         Chile            Argentina       
##  6  2016 chl          arg         Chile            Argentina       
##  7  2016 chl          arg         Chile            Argentina       
##  8  2016 chl          arg         Chile            Argentina       
##  9  2016 chl          arg         Chile            Argentina       
## 10  2016 chl          arg         Chile            Argentina       
## # … with 2,778 more rows, and 15 more variables: product_code <chr>,
## #   product_code_length <int>, product_fullname_english <chr>,
## #   group_code <chr>, group_name <chr>, export_value_usd <int>,
## #   import_value_usd <int>, export_value_usd_change_1_year <int>,
## #   export_value_usd_change_5_years <int>,
## #   export_value_usd_percentage_change_1_year <dbl>,
## #   export_value_usd_percentage_change_5_years <dbl>,
## #   import_value_usd_change_1_year <int>,
## #   import_value_usd_change_5_years <int>,
…
# you need to know the ISO code to pass a valid destination/partner
# good point: it follows standards
destination <- c("arg", "bol", "per")

oec_data <- map(destination, read_from_oec)
oec_data <- bind_rows(flatten(oec_data))

as_tibble(oec_data)
```

```
## # A tibble: 9,929 x 15
##    dest_id export_val export_val_grow… export_val_grow… export_val_grow…
##    <chr>        <dbl>            <dbl>            <dbl>            <dbl>
##  1 saarg      558931.            0.223            0.277          101763.
##  2 saarg       14013.           -0.86            -0.178          -86169.
##  3 saarg      544918.            0.526            0.338          187931.
##  4 saarg          NA            NA               NA                  NA 
##  5 saarg          NA            NA               NA                  NA 
##  6 saarg          NA            NA               NA                  NA 
##  7 saarg          NA            NA               NA                  NA 
##  8 saarg          NA            NA               NA                  NA 
##  9 saarg          NA            NA               NA                  NA 
## 10 saarg          NA            NA               NA                  NA 
## # … with 9,919 more rows, and 10 more variables:
## #   export_val_growth_val_5 <dbl>, hs07_id <chr>, hs07_id_len <dbl>,
## #   import_val <dbl>, import_val_growth_pct <dbl>,
## #   import_val_growth_pct_5 <dbl>, import_val_growth_val <dbl>,
## #   import_val_growth_val_5 <dbl>, origin_id <chr>, year <dbl>
```

Post-filtering is required at product code depth as there are more observations than the result of Open Trade Statistics (which by default returns standard Harmonized System four digits codes).

One major drawback here is that OEC codes from here doesn't fully respect the Harmonized System. Six digits codes from the OEC are HS four digits code with added digits at the beginning to indicate the category of the product, and this is very confusing provided HS has a six digits list of codes that consists in a more detailed version of four digits codes (i.e. "laptops" versus "laptops, 14 inch screen").

Let's filter with this consideration in mind:

```r
as_tibble(oec_data) %>% 
  filter(hs07_id_len == 6)
```

```
## # A tibble: 2,558 x 15
##    dest_id export_val export_val_grow… export_val_grow… export_val_grow…
##    <chr>        <dbl>            <dbl>            <dbl>            <dbl>
##  1 saarg      558931.            0.223            0.277          101763.
##  2 saarg          NA            NA               NA                  NA 
##  3 saarg          NA            NA               NA                  NA 
##  4 saarg          NA            NA               NA                  NA 
##  5 saarg          NA            NA               NA                  NA 
##  6 saarg          NA            NA               NA                  NA 
##  7 saarg          NA            NA               NA                  NA 
##  8 saarg    41842074.            0.14             0.163         5146236.
##  9 saarg      621080.            1.93            -0.135          409185.
## 10 saarg    20324918.            0.287            0.231         4534606.
## # … with 2,548 more rows, and 10 more variables:
## #   export_val_growth_val_5 <dbl>, hs07_id <chr>, hs07_id_len <dbl>,
## #   import_val <dbl>, import_val_growth_pct <dbl>,
## #   import_val_growth_pct_5 <dbl>, import_val_growth_val <dbl>,
## #   import_val_growth_val_5 <dbl>, origin_id <chr>, year <dbl>
```
…
# getting to know these codes required web scraping from http://atlas.cid.harvard.edu/explore
# bad point: it doesn't follow COMTRADE numeric codes (hard to memorize, btw)
destination <- c("8", "31", "173")

atlas_data <- map(destination, read_from_atlas)
atlas_data <- bind_rows(atlas_data[[1]]$data, atlas_data[[2]]$data, atlas_data[[3]]$data)

as_tibble(atlas_data)
```

```
## # A tibble: 59,518 x 6
##    export_value import_value location_id partner_id product_id  year
##           <int>        <int>       <int>      <int>      <int> <int>
##  1        23838       413061          42          8        650  1995
##  2       172477       368650          42          8        650  1996
##  3       146238       310383          42          8        650  1997
##  4        69139       141525          42          8        650  1998
##  5        79711        97951          42          8        650  1999
##  6        85042       392098          42          8        650  2000
##  7       463361       252611          42          8        650  2001
##  8       191069       186278          42          8        650  2002
##  9        88566       106782          42          8        650  2003
## 10       234638       113184          42          8        650  2004
## # … with 59,508 more rows
```

Post-filtering is required at year as there are more years than what was requested:

```r
as_tibble(atlas_data) %>% 
  filter(year == 2016)
```

```
## # A tibble: 2,718 x 6
##    export_value import_value location_id partner_id product_id  year
##           <int>        <int>       <int>      <int>      <int> <int>
##  1       463809      1074354          42          8        650  2016
##  2            0        17189          42          8        655  2016
##  3            0    139638464          42          8        656  2016
##  4            0       507301          42          8        657  2016
##  5            0       212049          42          8        659  2016
##  6            0       124921          42          8        661  2016
##  7            0     20601067          42          8        662  2016
##  8     34454500            0          42          8        667  2016
##  9       211614       724851          42          8        668  2016
## 10     14944704        25975          42          8        669  2016
## # … with 2,708 more rows
```
…
