…
By default you get a tibble back, but you can ask for a list in return instead.

Parsing by line allows the user to decide how to apply parsing across lines,
whether it be `lapply` style, or for loop, etc.

## Parse entire files

You can also parse entire ISD files.


```r
isd_parse(path)
#> # A tibble: 2,601 × 42
#>    total_chars usaf_station wban_station       date  time date_flag
#>          <dbl>        <chr>        <chr>     <date> <chr>     <chr>
#> 1           54       024130        99999 2016-01-01  0000         4
#> 2           54       024130        99999 2016-01-01  0100         4
#> 3           54       024130        99999 2016-01-01  0200         4
#> 4           54       024130        99999 2016-01-01  0300         4
#> 5           54       024130        99999 2016-01-01  0400         4
#> 6           39       024130        99999 2016-01-01  0500         4
#> 7           54       024130        99999 2016-01-01  0600         4
#> 8           39       024130        99999 2016-01-01  0700         4
#> 9           54       024130        99999 2016-01-01  0800         4
#> 10          54       024130        99999 2016-01-01  0900         4
#> # ... with 2,591 more rows, and 36 more variables: latitude <dbl>,
#> #   longitude <dbl>, type_code <chr>, elevation <dbl>, call_letter <chr>,
#> #   quality <chr>, wind_direction <dbl>, wind_direction_quality <chr>,
#> #   wind_code <chr>, wind_speed <dbl>, wind_speed_quality <chr>,
#> #   ceiling_height <chr>, ceiling_height_quality <chr>,
#> #   ceiling_height_determination <chr>, ceiling_height_cavok <chr>,
#> #   visibility_distance <chr>, visibility_distance_quality <chr>,
#> #   visibility_code <chr>, visibility_code_quality <chr>,
#> #   temperature <dbl>, temperature_quality <chr>,
…
Optionally, you can print progress:


```r
isd_parse(path, progress = TRUE)
#> # A tibble: 2,601 × 42
#>    total_chars usaf_station wban_station       date  time date_flag
#>          <dbl>        <chr>        <chr>     <date> <chr>     <chr>
#> 1           54       024130        99999 2016-01-01  0000         4
#> 2           54       024130        99999 2016-01-01  0100         4
#> 3           54       024130        99999 2016-01-01  0200         4
#> 4           54       024130        99999 2016-01-01  0300         4
#> 5           54       024130        99999 2016-01-01  0400         4
#> 6           39       024130        99999 2016-01-01  0500         4
#> 7           54       024130        99999 2016-01-01  0600         4
#> 8           39       024130        99999 2016-01-01  0700         4
#> 9           54       024130        99999 2016-01-01  0800         4
#> 10          54       024130        99999 2016-01-01  0900         4
#> # ... with 2,591 more rows, and 36 more variables: latitude <dbl>,
#> #   longitude <dbl>, type_code <chr>, elevation <dbl>, call_letter <chr>,
#> #   quality <chr>, wind_direction <dbl>, wind_direction_quality <chr>,
#> #   wind_code <chr>, wind_speed <dbl>, wind_speed_quality <chr>,
#> #   ceiling_height <chr>, ceiling_height_quality <chr>,
#> #   ceiling_height_determination <chr>, ceiling_height_cavok <chr>,
#> #   visibility_distance <chr>, visibility_distance_quality <chr>,
#> #   visibility_code <chr>, visibility_code_quality <chr>,
#> #   temperature <dbl>, temperature_quality <chr>,
…
