…
2) Look at the built in `stations` data set to find the specific stations you're interested in (you can also use the `stations_search()` function). Here, we'll use the [`dplyr`](http://dplyr.tidyverse.org/) package (part of [`tidyverse`](https://www.tidyverse.org)) to `filter()` stations to only those in the province of Manitoba, which record data at daily intervals, and which have an end date of 2018 or later (which likely means it's still operational at the date of writing this post). Note that we'll also be removing some columns (`prov`, `climate_id`, `WMO_id`, `TC_id`) just for clarity.


```r
mb <- filter(stations, 
             prov == "MB",
             interval == "day",
             end >= 2018) %>%
  select(-prov, -climate_id, -WMO_id, -TC_id)
mb
```

```
# A tibble: 81 x 10
   station_name station_id   lat    lon  elev tz    interval start   end normals
   <chr>             <int> <dbl>  <dbl> <dbl> <chr> <chr>    <int> <int> <lgl>  
 1 RIVERS PETT…       3457  50.1 -100.   488. Etc/… day       1987  2020 FALSE  
 2 ROSSBURN 4 …       3458  50.8 -101.   610. Etc/… day       1986  2020 FALSE  
 3 ELKHORN 2 E…       3460  49.9 -101.   498. Etc/… day       1987  2020 FALSE  
 4 BALDUR             3463  49.3  -99.3  450. Etc/… day       1962  2020 TRUE   
 5 PORTAGE LA …       3519  50.0  -98.3  259. Etc/… day       1970  2020 TRUE   
 6 WASAGAMING         3562  50.7  -99.9  627. Etc/… day       1966  2020 TRUE   
 7 GRETNA (AUT)       3605  49.0  -97.6  253. Etc/… day       1885  2020 TRUE   
 8 HOLLAND            3609  49.6  -98.9  375. Etc/… day       1984  2020 FALSE  
 9 MARQUETTE          3619  50.0  -97.8  244. Etc/… day       1969  2020 TRUE   
10 OAKBANK            3641  49.9  -96.8  246. Etc/… day       1885  2020 FALSE  
# … with 71 more rows
```
…
