…
  tibble::tibble(filepath = filepath,
                 url = urls)
}

all_urls <- purrr::map_df(mds, get_links)
all_urls <- all_urls  %>%
  dplyr::mutate(url = stringr::str_remove_all(url, "#.*"),
                url = stringr::str_remove(url, "\\/$"))

all_urls
```

    ## # A tibble: 14,234 x 2
    ##    filepath                                            url                      
    ##    <chr>                                               <chr>                    
    ##  1 /home/maelle/Documents/ropensci/roweb2/content/aut… https://adamhsparks.netl…
    ##  2 /home/maelle/Documents/ropensci/roweb2/content/aut… https://aldocompagnoni.w…
    ##  3 /home/maelle/Documents/ropensci/roweb2/content/aut… http://robitalec.ca      
    ##  4 /home/maelle/Documents/ropensci/roweb2/content/aut… https://alison.rbind.io  
    ##  5 /home/maelle/Documents/ropensci/roweb2/content/aut… https://dobb.ae          
    ##  6 /home/maelle/Documents/ropensci/roweb2/content/aut… https://thestudyofthehou…
    ##  7 /home/maelle/Documents/ropensci/roweb2/content/aut… https://annakrystalli.me 
    ##  8 /home/maelle/Documents/ropensci/roweb2/content/aut… https://paleantology.com…
    ##  9 /home/maelle/Documents/ropensci/roweb2/content/aut… https://aurielfournier.g…
    ## 10 /home/maelle/Documents/ropensci/roweb2/content/aut… https://faculty.washingt…
    ## # … with 14,224 more rows
…
