…
You can select just the variables you want:


```r
ch_generate('job', 'phone_number', n = 30)
#> # A tibble: 30 x 2
#>                           job         phone_number
#>                         <chr>                <chr>
#>  1        Call centre manager  1-670-715-3079x9104
#>  2 Nurse, learning disability 1-502-781-3386x33524
#>  3           Network engineer       1-692-089-3060
#>  4           Industrial buyer       1-517-855-8517
#>  5     Database administrator  (999)474-9975x89650
#>  6       Operations geologist          06150655769
#>  7             Engineer, land     360-043-3630x592
#>  8     Pension scheme manager        (374)429-6821
#>  9          Personnel officer   1-189-574-3348x338
#> 10         Editor, film/video       1-698-135-1664
#> # ... with 20 more rows
```
…
