…
### Local Climatological Data

[Local Climatological Data][lcd] consists of

> hourly, daily, and monthly summaries for approximately 1,600 U.S. locations.

In some examples, we get data for a single station for two different years.
The data is returned in data.frame format


```r
lcd(station = "01338099999", year = "2017")
#> # A tibble: 8,677 x 36
#>    station date  source latitude longitude elevation name  report_type
#>      <int> <chr>  <int>    <dbl>     <dbl>     <dbl> <chr> <chr>      
#>  1  1.34e9 2017…      4     61.2      6.65        51 VANG… FM-12      
#>  2  1.34e9 2017…      4     61.2      6.65        51 VANG… FM-12      
#>  3  1.34e9 2017…      4     61.2      6.65        51 VANG… FM-12      
#>  4  1.34e9 2017…      4     61.2      6.65        51 VANG… FM-12      
#>  5  1.34e9 2017…      4     61.2      6.65        51 VANG… FM-12      
#>  6  1.34e9 2017…      4     61.2      6.65        51 VANG… FM-12      
#>  7  1.34e9 2017…      4     61.2      6.65        51 VANG… FM-12      
#>  8  1.34e9 2017…      4     61.2      6.65        51 VANG… FM-12      
#>  9  1.34e9 2017…      4     61.2      6.65        51 VANG… FM-12      
#> 10  1.34e9 2017…      4     61.2      6.65        51 VANG… FM-12      
#> # … with 8,667 more rows, and 28 more variables: call_sign <int>,
#> #   quality_control <chr>, wnd <chr>, cig <chr>, vis <chr>, tmp <chr>,
#> #   dew <chr>, slp <chr>, aa1 <chr>, aa2 <chr>, aj1 <chr>, ay1 <chr>,
#> #   ay2 <chr>, ga1 <chr>, ga2 <chr>, ga3 <chr>, ge1 <chr>, gf1 <chr>,
#> #   ia1 <chr>, ka1 <chr>, ka2 <chr>, ma1 <chr>, md1 <chr>, mw1 <chr>,
#> #   oc1 <chr>, od1 <chr>, rem <chr>, eqd <chr>
lcd(station = "01338099999", year = "2015")
#> # A tibble: 8,097 x 36
#>    station date  source latitude longitude elevation name  report_type
#>      <int> <chr>  <int>    <dbl>     <dbl>     <dbl> <chr> <chr>      
#>  1  1.34e9 2015…      4     61.2      6.65        51 VANG… FM-12      
#>  2  1.34e9 2015…      4     61.2      6.65        51 VANG… FM-12      
#>  3  1.34e9 2015…      4     61.2      6.65        51 VANG… FM-12      
#>  4  1.34e9 2015…      4     61.2      6.65        51 VANG… FM-12      
#>  5  1.34e9 2015…      4     61.2      6.65        51 VANG… FM-12      
#>  6  1.34e9 2015…      4     61.2      6.65        51 VANG… FM-12      
#>  7  1.34e9 2015…      4     61.2      6.65        51 VANG… FM-12      
#>  8  1.34e9 2015…      4     61.2      6.65        51 VANG… FM-12      
#>  9  1.34e9 2015…      4     61.2      6.65        51 VANG… FM-12      
#> 10  1.34e9 2015…      4     61.2      6.65        51 VANG… FM-12      
#> # … with 8,087 more rows, and 28 more variables: call_sign <int>,
#> #   quality_control <chr>, wnd <chr>, cig <chr>, vis <chr>, tmp <chr>,
#> #   dew <chr>, slp <chr>, aa1 <chr>, aa2 <chr>, aj1 <chr>, ay1 <chr>,
#> #   ay2 <chr>, ga1 <chr>, ga2 <chr>, ga3 <chr>, ge1 <chr>, gf1 <chr>,
#> #   ia1 <chr>, ka1 <chr>, ka2 <chr>, ma1 <chr>, md1 <chr>, mw1 <chr>,
#> #   oc1 <chr>, od1 <chr>, rem <chr>, eqd <chr>
```
…
Data is available from January 1950 to August 2018.

There are two functions associated with this data: `se_files()` and `se_data()`.

`se_files()` gives a data.frame of the details of each storm file, and 
`se_data()` gets the data for a particular year and data type. 

In a brief example, here we get data for year of 1988 and type "fatalities"


```r
se_data(year = 1988, type = "fatalities")
#> # A tibble: 39 x 11
#>    fat_yearmonth fat_day fat_time fatality_id event_id fatality_type
#>            <int>   <int>    <int>       <int>    <int> <chr>        
#>  1        198801      19     1130     1006297 10121593 D            
#>  2        198801      19     1152     1006298 10121594 D            
#>  3        198801      19     1158     1006299 10121595 D            
#>  4        198803      29     1445     1006300 10044375 D            
#>  5        198803      28     1805     1006301 10105510 D            
#>  6        198803      17     1045     1006302 10139634 D            
#>  7        198804      16     1430     1006303 10076954 D            
#>  8        198804      19      230     1006304 10001120 D            
#>  9        198805       7     2139     1006305 10082037 D            
#> 10        198805       8     1500     1006306 10002626 D            
#> # … with 29 more rows, and 5 more variables: fatality_date <chr>,
#> #   fatality_age <lgl>, fatality_sex <lgl>, fatality_location <lgl>,
#> #   event_yearmonth <int>
```
…
