…
Travis CI is the clear winner! Now, “img.shields.io” is a service for
badges of other things… which?

``` r
badges %>%
  dplyr::filter(stringr::str_detect(image_link, "img\\.shields\\.io")) %>%
  dplyr::count(text, sort = TRUE)
```

    ## # A tibble: 134 x 2
    ##    text                  n
    ##    <chr>             <int>
    ##  1 Coverage Status     198
    ##  2 License              92
    ##  3 lifecycle            63
    ##  4 CoverageStatus       54
    ##  5 <NA>                 38
    ##  6 packageversion       37
    ##  7 Last-changedate      32
    ##  8 Licence              29
    ##  9 minimal R version    28
    ## 10 Github Stars         19
    ## # ... with 124 more rows
…
