…
library(tesseract)
library(xml2)
library(stringr)
library(tibble)
xml <- ocr("https://jeroen.github.io/images/testocr.png", HOCR = TRUE)
doc <- read_xml(xml)
nodes <- xml_find_all(doc, ".//span[@class='ocrx_word']")
words <- xml_text(nodes)
meta <- xml_attr(nodes, 'title')
bbox <- str_replace(str_extract(meta, "bbox [\\d ]+"), "bbox ", "")
conf <- as.numeric(str_replace(str_extract(meta, "x_wconf.*"), "x_wconf ", ""))
tibble(confidence = conf, word = words, bbox = bbox)
```
```r
# A tibble: 60 x 3
   confidence word  bbox          
        <dbl> <chr> <chr>         
 1       89.0 This  36 92 96 116  
 2       89.0 is    109 92 129 116
 3       92.0 a     141 98 156 116
 4       93.0 lot   169 92 201 116
 5       91.0 of    212 92 240 116
 6       91.0 12    251 92 282 116
 7       92.0 point 296 92 364 122
 8       89.0 text  374 93 427 116
 9       93.0 to    437 93 463 116
10       90.0 test  474 93 526 116
# ... with 50 more rows
```
…
