…
_Note: If you don't load `tibble` you get normal data.frame's_


```r
library(tibble)
doi <- "10.1108/jd-12-2013-0166"
```

references: the works cited within the paper


```r
oc_coci_refs(doi)
#> # A tibble: 36 x 7
#>    oci           timespan citing   creation author_sc journal_sc cited     
#>  * <chr>         <chr>    <chr>    <chr>    <chr>     <chr>      <chr>     
#>  1 020010100083… P9Y2M5D  10.1108… 2015-03… no        no         10.1001/j…
#>  2 020010100083… P41Y8M   10.1108… 2015-03… no        no         10.1002/a…
#>  3 020010100083… P25Y6M   10.1108… 2015-03… no        no         10.1002/(…
#>  4 020010100083… P17Y2M   10.1108… 2015-03… no        no         10.1007/b…
#>  5 020010100083… P2Y2M3D  10.1108… 2015-03… no        no         10.1007/s…
#>  6 020010100083… P5Y8M27D 10.1108… 2015-03… no        no         10.1007/s…
#>  7 020010100083… P2Y3M    10.1108… 2015-03… no        no         10.1016/j…
#>  8 020010100083… P1Y10M   10.1108… 2015-03… no        no         10.1016/j…
#>  9 020010100083… P12Y     10.1108… 2015-03… no        no         10.1023/a…
#> 10 020010100083… P13Y10M  10.1108… 2015-03… no        no         10.1038/3…
#> # … with 26 more rows
```
…
