…
To illustrate how to download data and combine with other packages for analysis, here we retrieve expression data of gene [*KRAS*](https://ghr.nlm.nih.gov/gene/KRAS) (which is a known driver in LUAD) and survival status from [TCGA Lung Adenocarcinoma (LUAD)](https://xenabrowser.net/datapages/?cohort=TCGA Lung Adenocarcinoma (LUAD)&removeHub=https%3A%2F%2Fxena.treehouse.gi.ucsc.edu%3A443) as example data to finish a survival analysis procedure, which is frequently shown in cancer researches.

## Download data

For obtaining survival status of TCGA LUAD samples, we need to download the TCGA LUAD clinical dataset. For obtaining *KRAS* gene expression, we need to download a subset of TCGA LUAD expression matrix.

```
suppressMessages(library(UCSCXenaTools))
suppressMessages(library(dplyr))
luad_cohort = XenaData %>% 
  filter(XenaHostNames == "tcgaHub") %>% # select TCGA Hub
  XenaScan("TCGA Lung Adenocarcinoma")   # select LUAD cohort

luad_cohort
#> # A tibble: 27 x 17
#>    XenaHosts XenaHostNames XenaCohorts XenaDatasets SampleCount DataSubtype
#>    <chr>     <chr>         <chr>       <chr>        <chr>       <chr>      
#>  1 https://… tcgaHub       TCGA Lung … RABIT/separ… 467         Transcript…
#>  2 https://… tcgaHub       TCGA Lung … RABIT/separ… 120         Transcript…
#>  3 https://… tcgaHub       TCGA Lung … TCGA.LUAD.s… 151         DNA methyl…
#>  4 https://… tcgaHub       TCGA Lung … TCGA.LUAD.s… 492         DNA methyl…
#>  5 https://… tcgaHub       TCGA Lung … TCGA.LUAD.s… 516         copy numbe…
#>  6 https://… tcgaHub       TCGA Lung … TCGA.LUAD.s… 543         somatic mu…
#>  7 https://… tcgaHub       TCGA Lung … TCGA.LUAD.s… 237         protein ex…
#>  8 https://… tcgaHub       TCGA Lung … TCGA.LUAD.s… 576         gene expre…
#>  9 https://… tcgaHub       TCGA Lung … TCGA.LUAD.s… 60          miRNA matu…
#> 10 https://… tcgaHub       TCGA Lung … TCGA.LUAD.s… 576         gene expre…
#> # … with 17 more rows, and 11 more variables: Label <chr>, Type <chr>,
#> #   AnatomicalOrigin <chr>, SampleType <chr>, Tags <chr>, ProbeMap <chr>,
#> #   LongTitle <chr>, Citation <chr>, Version <chr>, Unit <chr>,
#> #   Platform <chr>
```
…
